Guessed flow protos:	44

DPI Packets (TCP):	159	(2.52 pkts/flow)
DPI Packets (UDP):	201	(4.57 pkts/flow)
Confidence Unknown          : 34 (flows)
Confidence Match by port    : 2 (flows)
Confidence DPI              : 71 (flows)

Unknown	990	378832	34
HTTP	377	402676	46
SSDP	63	17143	10
PPStream	1102	1420975	15
Google	2	1093	1
Cybersec	23	25892	1

	1	TCP 192.168.115.8:50780 <-> 223.26.106.20:80 [proto: 7.54/HTTP.PPStream][ClearText][Confidence: DPI][cat: Streaming/17][1 pkts/303 bytes <-> 541 pkts/710082 bytes][Goodput ratio: 82/96][0.98 sec][Hostname/SNI: preimage1.qiyipic.com][bytes ratio: -0.999 (Download)][IAT c2s/s2c min/avg/max/stddev: 0/0 0/2 0/77 0/8][Pkt Len c2s/s2c min/avg/max/stddev: 303/522 303/1313 303/1314 0/34][URL: preimage1.qiyipic.com/preimage/20160506/f0/1f/v_110359998_m_611_160_90_2.jpg?no=2][StatusCode: 200][User-Agent: Qiyi List Client PC 5.2.15.2240][PLAIN TEXT (GET /preimage/20160506/f0/1)][Plen Bins: 0,0,0,0,0,0,0,0,0,0,0,0,0,0,0,0,0,0,0,0,0,0,0,0,0,0,0,0,0,0,0,0,0,0,0,0,0,0,0,100,0,0,0,0,0,0,0,0]
	2	TCP 192.168.115.8:50778 <-> 223.26.106.20:80 [proto: 7.54/HTTP.PPStream][ClearText][Confidence: DPI][cat: Streaming/17][1 pkts/303 bytes <-> 528 pkts/692658 bytes][Goodput ratio: 82/96][0.82 sec][Hostname/SNI: preimage1.qiyipic.com][bytes ratio: -0.999 (Download)][IAT c2s/s2c min/avg/max/stddev: 0/0 0/1 0/51 0/7][Pkt Len c2s/s2c min/avg/max/stddev: 303/180 303/1312 303/1314 0/49][URL: preimage1.qiyipic.com/preimage/20160506/f0/1f/v_110359998_m_611_160_90_1.jpg?no=1][StatusCode: 200][User-Agent: Qiyi List Client PC 5.2.15.2240][PLAIN TEXT (GET /preimage/20160506/f0/1)][Plen Bins: 0,0,0,0,0,0,0,0,0,0,0,0,0,0,0,0,0,0,0,0,0,0,0,0,0,0,0,0,0,0,0,0,0,0,0,0,0,0,0,100,0,0,0,0,0,0,0,0]
	3	TCP 192.168.115.8:50505 <-> 223.26.106.19:80 [proto: 7/HTTP][ClearText][Confidence: DPI][cat: Web/5][2 pkts/400 bytes <-> 244 pkts/319633 bytes][Goodput ratio: 73/96][0.11 sec][Hostname/SNI: static.qiyi.com][bytes ratio: -0.998 (Download)][IAT c2s/s2c min/avg/max/stddev: 35/0 35/0 35/35 0/2][Pkt Len c2s/s2c min/avg/max/stddev: 198/566 200/1310 202/1314 2/50][URL: static.qiyi.com/ext/common/qisu2/downloader.ini][StatusCode: 200][User-Agent: Downloader][PLAIN TEXT (GET /ext/common/qisu2/downloade)][Plen Bins: 0,0,0,0,0,0,0,0,0,0,0,0,0,0,0,0,0,0,0,0,0,0,0,0,0,0,0,0,0,0,0,0,0,0,0,0,0,0,0,100,0,0,0,0,0,0,0,0]
	4	TCP 192.168.115.8:50491 <-> 223.26.106.66:80 [proto: 7/HTTP][ClearText][Confidence: DPI][cat: Web/5][1 pkts/426 bytes <-> 26 pkts/33872 bytes][Goodput ratio: 87/96][0.02 sec][Hostname/SNI: 223.26.106.66][bytes ratio: -0.975 (Download)][IAT c2s/s2c min/avg/max/stddev: 0/0 0/0 0/3 0/1][Pkt Len c2s/s2c min/avg/max/stddev: 426/1022 426/1303 426/1314 0/56][URL: 223.26.106.66/videos/v0/20160625/a5/bf/8de9bb946972a88589d1667862292130.f4v?key=07eef1821e2379d3136ffe16082185ba2&src=iqiyi.com&&tn=137719&uuid=76a3085a-57760844-de][StatusCode: 0][User-Agent: QY-Player-Windows/2.0.102][Risk: ** HTTP Numeric IP Address **][Risk Score: 10][Risk Info: Found host 223.26.106.66][PLAIN TEXT (GET /videos/v)][Plen Bins: 0,0,0,0,0,0,0,0,0,0,0,3,0,0,0,0,0,0,0,0,0,0,0,0,0,0,0,0,0,0,3,0,0,0,0,0,0,0,0,93,0,0,0,0,0,0,0,0]
	5	TCP 192.168.115.8:50486 <-> 77.234.40.96:80 [proto: 7.283/HTTP.Cybersec][ClearText][Confidence: DPI][cat: Cybersecurity/33][11 pkts/11023 bytes <-> 12 pkts/14869 bytes][Goodput ratio: 95/96][13.04 sec][Hostname/SNI: bcu.ff.avast.com][bytes ratio: -0.149 (Mixed)][IAT c2s/s2c min/avg/max/stddev: 0/0 68/0 307/0 127/0][Pkt Len c2s/s2c min/avg/max/stddev: 231/536 1002/1239 1314/1314 434/215][URL: bcu.ff.avast.com/bc2][StatusCode: 200][Req Content-Type: application/x-enc][User-Agent: {D699054D-1699-47D2-9B2B-E96F438C1160}][Risk: ** HTTP Suspicious User-Agent **][Risk Score: 100][Risk Info: Suspicious Log4J][PLAIN TEXT (POST /bc2 HTTP/1.1)][Plen Bins: 0,0,0,0,0,8,0,0,0,0,0,0,0,0,0,4,0,0,0,8,0,0,0,0,0,0,0,0,0,0,0,0,0,0,0,4,0,0,0,75,0,0,0,0,0,0,0,0]
	6	UDP 192.168.5.38:1900 -> 239.255.255.250:1900 [proto: 12/SSDP][ClearText][Confidence: DPI][cat: System/18][18 pkts/9327 bytes -> 0 pkts/0 bytes][Goodput ratio: 92/0][6.36 sec][Hostname/SNI: 239.255.255.250:1900][bytes ratio: 1.000 (Upload)][IAT c2s/s2c min/avg/max/stddev: 46/0 393/0 2654/0 855/0][Pkt Len c2s/s2c min/avg/max/stddev: 473/0 518/0 553/0 30/0][PLAIN TEXT (NOTIFY )][Plen Bins: 0,0,0,0,0,0,0,0,0,0,0,0,0,33,0,66,0,0,0,0,0,0,0,0,0,0,0,0,0,0,0,0,0,0,0,0,0,0,0,0,0,0,0,0,0,0,0,0]
	7	TCP 192.168.115.8:50476 <-> 101.227.32.39:80 [proto: 7.54/HTTP.PPStream][ClearText][Confidence: DPI][cat: Streaming/17][1 pkts/656 bytes <-> 4 pkts/3897 bytes][Goodput ratio: 92/94][0.04 sec][Hostname/SNI: cache.video.iqiyi.com][URL: cache.video.iqiyi.com/vi/500494600/562e26caed5695900212eb3259070f8a/?src=1_11_114][StatusCode: 200][PLAIN TEXT (GET /vi/500494600/562)][Plen Bins: 0,0,0,0,0,0,0,0,0,0,0,0,0,0,0,0,0,0,20,20,0,0,0,0,0,0,0,0,0,0,0,0,60,0,0,0,0,0,0,0,0,0,0,0,0,0,0,0]
	8	TCP 192.168.115.8:50495 <-> 202.108.14.236:80 [proto: 7/HTTP][ClearText][Confidence: DPI][cat: Streaming/17][3 pkts/2844 bytes <-> 3 pkts/597 bytes][Goodput ratio: 94/73][0.55 sec][Hostname/SNI: msg.71.am][bytes ratio: 0.653 (Upload)][IAT c2s/s2c min/avg/max/stddev: 117/118 216/217 315/316 99/99][Pkt Len c2s/s2c min/avg/max/stddev: 946/199 948/199 952/199 3/0][URL: msg.71.am/cp2.gif?a=4e3ae415a584748ac9aa31628f39d1e8&ai=&as=1:23:23|45&av=4.10.004&b=180932301&c=31&ct=5000000927558&d=2175&di=&dp=71000001&e=c4889e64ad9d9eeb9ff438910850c442&ec=&em=&fi=&g=0&l=MTE4LjE2My44Ljkw&mk=&nw=&od=5000000858874&oi=&p=a&pp=&rc=&rd=&][StatusCode: 200][User-Agent: Mozilla/4.0 (compatible; MSIE 8.0; Windows NT 6.1; WOW64; Trident/4.0; SLCC2; .NET CLR 2.0.50727; .NET CLR 3.5.30729; .NET CLR 3.0.30729; Media Center PC 6.0)/QY-Player-Windows/2.0.102][PLAIN TEXT (GET /cp)][Plen Bins: 0,0,0,0,50,0,0,0,0,0,0,0,0,0,0,0,0,0,0,0,0,0,0,0,0,0,0,33,16,0,0,0,0,0,0,0,0,0,0,0,0,0,0,0,0,0,0,0]
	9	TCP 77.234.41.35:80 <-> 192.168.115.8:49174 [proto: 7/HTTP][ClearText][Confidence: DPI][cat: Download/7][4 pkts/2953 bytes <-> 1 pkts/356 bytes][Goodput ratio: 93/85][0.24 sec][Risk: ** Binary App Transfer **][Risk Score: 250][Risk Info: Found mime exe octet-stream][PLAIN TEXT (HTTP/1.1 200 OK)][Plen Bins: 0,20,0,0,20,0,0,0,0,20,0,0,0,0,0,0,0,0,0,0,0,0,0,0,0,0,0,0,0,0,0,0,0,0,0,0,0,0,0,40,0,0,0,0,0,0,0,0]
	10	TCP 192.168.115.8:50767 <-> 223.26.106.20:80 [proto: 7/HTTP][ClearText][Confidence: DPI][cat: Web/5][4 pkts/800 bytes <-> 4 pkts/2112 bytes][Goodput ratio: 73/90][0.09 sec][Hostname/SNI: static.qiyi.com][bytes ratio: -0.451 (Download)][IAT c2s/s2c min/avg/max/stddev: 19/19 27/27 34/35 6/7][Pkt Len c2s/s2c min/avg/max/stddev: 198/526 200/528 202/530 2/2][URL: static.qiyi.com/ext/common/qisu2/masauto.ini][StatusCode: 200][User-Agent: masauto_runxx][PLAIN TEXT (GET /ext/common/qisu2/masauto.i)][Plen Bins: 0,0,0,0,50,0,0,0,0,0,0,0,0,0,50,0,0,0,0,0,0,0,0,0,0,0,0,0,0,0,0,0,0,0,0,0,0,0,0,0,0,0,0,0,0,0,0,0]
	11	TCP 192.168.115.8:50488 <-> 223.26.106.20:80 [proto: 7/HTTP][ClearText][Confidence: DPI][cat: Web/5][1 pkts/311 bytes <-> 2 pkts/2035 bytes][Goodput ratio: 82/95][0.06 sec][Hostname/SNI: meta.video.qiyi.com][URL: meta.video.qiyi.com/20160625/a5/bf/413f91ad101e780a6b63f826e28b9920.xml][StatusCode: 200][User-Agent: QY-Player-Windows/2.0.102][PLAIN TEXT (GET /20160625/a)][Plen Bins: 0,0,0,0,0,0,0,0,33,0,0,0,0,0,0,0,0,0,0,0,33,0,0,0,0,0,0,0,0,0,0,0,0,0,0,0,0,0,0,33,0,0,0,0,0,0,0,0]
	12	TCP 192.168.115.8:50471 <-> 202.108.14.236:80 [proto: 7/HTTP][ClearText][Confidence: DPI][cat: Streaming/17][2 pkts/1898 bytes <-> 2 pkts/398 bytes][Goodput ratio: 94/73][2.78 sec][Hostname/SNI: msg.71.am][URL: msg.71.am/cp2.gif?a=4e3ae415a584748ac9aa31628f39d1e8&ai=1||71000001||5000000858874||5000000927558||roll&as=&av=4.10.004&b=180932301&c=31&ct=&d=2175&di=&dp=&e=c4889e64ad9d9eeb9ff438910850c442&ec=&em=&fi=&g=0&l=MTE4LjE2My44Ljkw&mk=&nw=&od=&oi=&p=t&pp=&rc=-1][StatusCode: 200][User-Agent: Mozilla/4.0 (compatible; MSIE 8.0; Windows NT 6.1; WOW64; Trident/4.0; SLCC2; .NET CLR 2.0.50727; .NET CLR 3.5.30729; .NET CLR 3.0.30729; Media Center PC 6.0)/QY-Player-Windows/2.0.102][PLAIN TEXT (GET /cp)][Plen Bins: 0,0,0,0,50,0,0,0,0,0,0,0,0,0,0,0,0,0,0,0,0,0,0,0,0,0,0,25,25,0,0,0,0,0,0,0,0,0,0,0,0,0,0,0,0,0,0,0]
	13	TCP 192.168.115.8:50501 <-> 202.108.14.236:80 [proto: 7/HTTP][ClearText][Confidence: DPI][cat: Streaming/17][2 pkts/1893 bytes <-> 1 pkts/199 bytes][Goodput ratio: 94/73][7.29 sec][Hostname/SNI: msg.71.am][URL: msg.71.am/cp2.gif?a=4e3ae415a584748ac9aa31628f39d1e8&ai=&as=1:45:23|45&av=4.10.004&b=180932301&c=31&ct=5000000923447&d=2175&di=&dp=71000001&e=c4889e64ad9d9eeb9ff438910850c442&ec=&em=&fi=&g=0&l=MTE4LjE2My44Ljkw&mk=&nw=&od=5000000854934&oi=&p=a&pp=&rc=&rd=&][StatusCode: 200][User-Agent: Mozilla/4.0 (compatible; MSIE 8.0; Windows NT 6.1; WOW64; Trident/4.0; SLCC2; .NET CLR 2.0.50727; .NET CLR 3.5.30729; .NET CLR 3.0.30729; Media Center PC 6.0)/QY-Player-Windows/2.0.102][PLAIN TEXT (GET /cp)][Plen Bins: 0,0,0,0,33,0,0,0,0,0,0,0,0,0,0,0,0,0,0,0,0,0,0,0,0,0,0,66,0,0,0,0,0,0,0,0,0,0,0,0,0,0,0,0,0,0,0,0]
	14	TCP 192.168.115.8:50463 <-> 101.227.200.11:80 [proto: 7.54/HTTP.PPStream][ClearText][Confidence: DPI][cat: Streaming/17][2 pkts/1555 bytes <-> 1 pkts/306 bytes][Goodput ratio: 93/82][0.04 sec][Hostname/SNI: api.cupid.iqiyi.com][URL: api.cupid.iqiyi.com/track2?a=1&as=1;2,3;4,5&b=1467353138&c=ae87cb3cfdf494aa48dc608909f69250&cv=5.2.15.2240&d=5000000858874&dr=2175&f=4e3ae415a584748ac9aa31628f39d1e8&g=0_aaoefdtqgfdepxc2tnv3piucgcb4eofn&h=&i=qc_100001_100140&iv=0&j=31&k=180932301&kp=4e3ae][StatusCode: 200][User-Agent: Mozilla/4.0 (compatible; MSIE 8.0; Windows NT 6.1; WOW64; Trident/4.0; SLCC2; .NET CLR 2.0.50727; .NET CLR 3.5.30729; .NET CLR 3.0.30729; Media Center PC 6.0)/QY-Player-Windows/2.0.102][PLAIN TEXT (GET /track2)][Plen Bins: 0,0,0,0,0,33,0,33,0,0,0,0,0,0,0,0,0,0,0,0,0,0,0,0,0,0,0,0,0,0,0,0,0,0,0,0,0,0,0,33,0,0,0,0,0,0,0,0]
	15	TCP 192.168.115.8:50496 <-> 101.227.200.11:80 [proto: 7.54/HTTP.PPStream][ClearText][Confidence: DPI][cat: Streaming/17][2 pkts/1555 bytes <-> 1 pkts/306 bytes][Goodput ratio: 93/82][0.04 sec][Hostname/SNI: api.cupid.iqiyi.com][URL: api.cupid.iqiyi.com/track2?a=0&as=1;2,3;4,5&b=1467353165&c=966542c82a5694d0e943d50d5fcf5a55&cv=5.2.15.2240&d=5000000854934&dr=2175&f=4e3ae415a584748ac9aa31628f39d1e8&g=0_aaoefdtqgfdepxc2tnv3piucgcb4eofn&h=&i=qc_100001_100140&iv=0&j=31&k=180932301&kp=4e3ae][StatusCode: 200][User-Agent: Mozilla/4.0 (compatible; MSIE 8.0; Windows NT 6.1; WOW64; Trident/4.0; SLCC2; .NET CLR 2.0.50727; .NET CLR 3.5.30729; .NET CLR 3.0.30729; Media Center PC 6.0)/QY-Player-Windows/2.0.102][PLAIN TEXT (GET /track2)][Plen Bins: 0,0,0,0,0,33,0,33,0,0,0,0,0,0,0,0,0,0,0,0,0,0,0,0,0,0,0,0,0,0,0,0,0,0,0,0,0,0,0,33,0,0,0,0,0,0,0,0]
	16	TCP 192.168.115.8:50779 <-> 111.206.22.77:80 [proto: 7.54/HTTP.PPStream][ClearText][Confidence: DPI][cat: Streaming/17][2 pkts/1438 bytes <-> 1 pkts/194 bytes][Goodput ratio: 92/72][0.10 sec][Hostname/SNI: msg.iqiyi.com][URL: msg.iqiyi.com/b?pf=201&p=11&p1=114&ap=0&source1=list&source2=online_l&t=201&ct=clt__pl_play&album_id=180932301&c1=479531000&clt=homedl&cn=160505-%E6%AD%A3%E7%89%87%EF%BC%9A%E9%83%91%E6%81%BA%E6%AC%A7%E5%B7%B4%E4%BA%8C%E6%AC%A1%E5%BD%92%E6%9D%A5%E5%8F%8D%E][StatusCode: 200][User-Agent: Qiyi List Client PC 5.2.15.2240][PLAIN TEXT (GET /b)][Plen Bins: 0,0,33,0,33,0,0,0,0,0,0,0,0,0,0,0,0,0,0,0,0,0,0,0,0,0,0,0,0,0,0,0,0,0,0,0,0,0,0,33,0,0,0,0,0,0,0,0]
	17	UDP 192.168.5.38:58897 -> 239.255.255.250:1900 [proto: 12/SSDP][ClearText][Confidence: DPI][cat: System/18][9 pkts/1575 bytes -> 0 pkts/0 bytes][Goodput ratio: 76/0][24.02 sec][Hostname/SNI: 239.255.255.250:1900][bytes ratio: 1.000 (Upload)][IAT c2s/s2c min/avg/max/stddev: 2999/0 3002/0 3008/0 3/0][Pkt Len c2s/s2c min/avg/max/stddev: 175/0 175/0 175/0 0/0][PLAIN TEXT (SEARCH )][Plen Bins: 0,0,0,0,100,0,0,0,0,0,0,0,0,0,0,0,0,0,0,0,0,0,0,0,0,0,0,0,0,0,0,0,0,0,0,0,0,0,0,0,0,0,0,0,0,0,0,0]
	18	UDP 192.168.115.1:50945 -> 239.255.255.250:1900 [proto: 12/SSDP][ClearText][Confidence: DPI][cat: System/18][9 pkts/1539 bytes -> 0 pkts/0 bytes][Goodput ratio: 75/0][6.03 sec][Hostname/SNI: 239.255.255.250:1900][bytes ratio: 1.000 (Upload)][IAT c2s/s2c min/avg/max/stddev: 30/0 753/0 2839/0 1189/0][Pkt Len c2s/s2c min/avg/max/stddev: 165/0 171/0 175/0 5/0][PLAIN TEXT (SEARCH )][Plen Bins: 0,0,0,44,55,0,0,0,0,0,0,0,0,0,0,0,0,0,0,0,0,0,0,0,0,0,0,0,0,0,0,0,0,0,0,0,0,0,0,0,0,0,0,0,0,0,0,0]
	19	TCP 192.168.115.8:50464 <-> 123.125.112.49:80 [proto: 7/HTTP][ClearText][Confidence: DPI][cat: Web/5][1 pkts/707 bytes <-> 1 pkts/744 bytes][Goodput ratio: 92/93][0.12 sec][Hostname/SNI: click.hm.baidu.com][URL: click.hm.baidu.com/clk?53e25e33e064c657c06b558e5c3c33fd][StatusCode: 302][User-Agent: Mozilla/4.0 (compatible; MSIE 8.0; Windows NT 6.1; WOW64; Trident/4.0; SLCC2; .NET CLR 2.0.50727; .NET CLR 3.5.30729; .NET CLR 3.0.30729; Media Center PC 6.0)/QY-Player-Windows/2.0.102][PLAIN TEXT (GET /clk)][Plen Bins: 0,0,0,0,0,0,0,0,0,0,0,0,0,0,0,0,0,0,0,0,50,50,0,0,0,0,0,0,0,0,0,0,0,0,0,0,0,0,0,0,0,0,0,0,0,0,0,0]
	20	TCP 192.168.115.8:50492 <-> 111.206.13.3:80 [proto: 7/HTTP][ClearText][Confidence: DPI][cat: Web/5][1 pkts/389 bytes <-> 2 pkts/1034 bytes][Goodput ratio: 86/89][0.28 sec][Hostname/SNI: pdata.video.qiyi.com][URL: pdata.video.qiyi.com/2efc8cd5fbe0f4ee498fb1c2fc1de8b6/videos/v0/20160625/a5/bf/8de9bb946972a88589d1667862292130.f4v?qyid=aaoefdtqgfdepxc2tnv3piucgcb4eofn&qypid=2012][StatusCode: 200][User-Agent: HCDNClient_WINPC;libcurl/7.26.0 OpenSSL/1.0.1g zlib/1.2.5;QK/10.0.0.293][PLAIN TEXT (GET /2efc)][Plen Bins: 0,0,0,0,0,0,0,0,0,0,33,0,0,0,66,0,0,0,0,0,0,0,0,0,0,0,0,0,0,0,0,0,0,0,0,0,0,0,0,0,0,0,0,0,0,0,0,0]
	21	TCP 192.168.115.8:50777 <-> 111.206.22.77:80 [proto: 7.54/HTTP.PPStream][ClearText][Confidence: DPI][cat: Streaming/17][1 pkts/1186 bytes <-> 1 pkts/194 bytes][Goodput ratio: 95/72][0.09 sec][Hostname/SNI: msg.iqiyi.com][URL: msg.iqiyi.com/b?pf=201&p=11&p1=114&ap=0&source1=list&source2=online_l&t=11&ct=pc__ad_play&album_id=180932301&c1=479531000&clt=homedl&cn=160505-%E6%AD%A3%E7%89%87%EF%BC%9A%E9%83%91%E6%81%BA%E6%AC%A7%E5%B7%B4%E4%BA%8C%E6%AC%A1%E5%BD%92%E6%9D%A5%E5%8F%8D%E9%][StatusCode: 200][User-Agent: Qiyi List Client PC 5.2.15.2240][PLAIN TEXT (GET /b)][Plen Bins: 0,0,0,0,50,0,0,0,0,0,0,0,0,0,0,0,0,0,0,0,0,0,0,0,0,0,0,0,0,0,0,0,0,0,0,50,0,0,0,0,0,0,0,0,0,0,0,0]
	22	TCP 192.168.115.8:50494 <-> 223.26.106.66:80 [proto: 7/HTTP][ClearText][Confidence: DPI][cat: Web/5][2 pkts/887 bytes <-> 1 pkts/443 bytes][Goodput ratio: 88/88][2.24 sec][Hostname/SNI: 223.26.106.66][URL: 223.26.106.66/videos/v0/20160625/a5/bf/8de9bb946972a88589d1667862292130.f4v?key=07eef1821e2379d3136ffe16082185ba2&src=iqiyi.com&qyid=aaoefdtqgfdepxc2tnv3piucgcb4eofn&qypid=2012&uuid=76a3085a-57760844-8b][StatusCode: 200][User-Agent: HCDNClient_WINPC;libcurl/7.26.0 OpenSSL/1.0.1g zlib/1.2.5;QK/10.0.0.293][Risk: ** HTTP Numeric IP Address **][Risk Score: 10][Risk Info: Found host 223.26.106.66][PLAIN TEXT (GET /videos/v)][Plen Bins: 0,0,0,0,0,0,0,0,0,0,0,33,66,0,0,0,0,0,0,0,0,0,0,0,0,0,0,0,0,0,0,0,0,0,0,0,0,0,0,0,0,0,0,0,0,0,0,0]
	23	TCP 192.168.115.8:50497 <-> 123.125.112.49:80 [proto: 7/HTTP][ClearText][Confidence: DPI][cat: Web/5][1 pkts/1004 bytes <-> 2 pkts/301 bytes][Goodput ratio: 95/62][0.10 sec][Hostname/SNI: click.hm.baidu.com][URL: click.hm.baidu.com/mkt.gif?ai=8452891900c903ae7a876447923a5aec&et=0][StatusCode: 204][User-Agent: Mozilla/4.0 (compatible; MSIE 8.0; Windows NT 6.1; WOW64; Trident/4.0; SLCC2; .NET CLR 2.0.50727; .NET CLR 3.5.30729; .NET CLR 3.0.30729; Media Center PC 6.0)/QY-Player-Windows/2.0.102][PLAIN TEXT (GET /mkt.gif)][Plen Bins: 0,0,0,0,0,50,0,0,0,0,0,0,0,0,0,0,0,0,0,0,0,0,0,0,0,0,0,0,0,50,0,0,0,0,0,0,0,0,0,0,0,0,0,0,0,0,0,0]
	24	TCP 192.168.115.8:50499 <-> 111.206.22.76:80 [proto: 7.54/HTTP.PPStream][ClearText][Confidence: DPI][cat: Streaming/17][1 pkts/1097 bytes <-> 1 pkts/199 bytes][Goodput ratio: 95/73][0.78 sec][Hostname/SNI: msg.iqiyi.com][URL: msg.iqiyi.com/b?t=5&pf=201&p=11&p1=114&rn=1467353167221&a=34&clt=tvg2015_baikeB_comment_show&type=pc&ref=noref&url=http%3A//vodguide.pps.iqiyi.com/page.php%3Fversion%3D5.2.15.2240%23class%3D200003719%2524%2524%2524%2524180932301%26entityid%3D479531000%26b][StatusCode: 200][User-Agent: Mozilla/5.0 (compatible; MSIE 9.0; Windows NT 6.1; Trident/5.0)][PLAIN TEXT (GET /b)][Plen Bins: 0,0,0,0,50,0,0,0,0,0,0,0,0,0,0,0,0,0,0,0,0,0,0,0,0,0,0,0,0,0,0,0,50,0,0,0,0,0,0,0,0,0,0,0,0,0,0,0]
	25	TCP 192.168.115.8:50474 <-> 202.108.14.221:80 [proto: 7.54/HTTP.PPStream][ClearText][Confidence: DPI][cat: Streaming/17][1 pkts/1100 bytes <-> 1 pkts/194 bytes][Goodput ratio: 95/72][0.05 sec][Hostname/SNI: msg.iqiyi.com][URL: msg.iqiyi.com/b?c1=6&s1=1&macid=aaoefdtqgfdepxc2tnv3piucgcb4eofn&channelid=000&nu=&e=1352528&se=1253811&r=500494600&aduid=d07dfd30f0ee4e48bbcaf1208c758471&ctm=1375211&playsource=001004000&vid=562e26caed5695900212eb3259070f8a&albumid=500494600&ra=2&td=2265][StatusCode: 200][User-Agent: Mozilla/4.0 (compatible; MSIE 8.0; Windows NT 6.1; Trident/4.0; SLCC2; .NET CLR 2.0.50727; .NET CLR 3.5.30729; .NET CLR 3.0.30729; Media Center PC 6.0; CIBA; Alexa Toolbar; Zune 4.7)][PLAIN TEXT (GET /b)][Plen Bins: 0,0,0,0,50,0,0,0,0,0,0,0,0,0,0,0,0,0,0,0,0,0,0,0,0,0,0,0,0,0,0,0,50,0,0,0,0,0,0,0,0,0,0,0,0,0,0,0]
	26	TCP 192.168.115.8:50507 <-> 223.26.106.19:80 [proto: 7/HTTP][ClearText][Confidence: DPI][cat: Web/5][1 pkts/212 bytes <-> 1 pkts/1063 bytes][Goodput ratio: 74/95][0.00 sec][Hostname/SNI: static.qiyi.com][URL: static.qiyi.com/ext/common/qisu2/downloadhelper.ini][StatusCode: 200][User-Agent: DownloadHelper_runxx][PLAIN TEXT (GET /ext/common/qisu2/downloadh)][Plen Bins: 0,0,0,0,50,0,0,0,0,0,0,0,0,0,0,0,0,0,0,0,0,0,0,0,0,0,0,0,0,0,0,50,0,0,0,0,0,0,0,0,0,0,0,0,0,0,0,0]
	27	TCP 192.168.115.8:50485 <-> 202.108.14.236:80 [proto: 7/HTTP][ClearText][Confidence: DPI][cat: Streaming/17][1 pkts/947 bytes <-> 1 pkts/199 bytes][Goodput ratio: 94/73][0.16 sec][Hostname/SNI: msg.71.am][URL: msg.71.am/cp2.gif?a=4e3ae415a584748ac9aa31628f39d1e8&ai=&as=1:23:23|45&av=4.10.004&b=180932301&c=31&ct=5000000927558&d=2175&di=&dp=71000001&e=c4889e64ad9d9eeb9ff438910850c442&ec=&em=&fi=&g=0&l=MTE4LjE2My44Ljkw&mk=&nw=&od=5000000858874&oi=&p=a&pp=&rc=&rd=&][StatusCode: 200][User-Agent: Mozilla/4.0 (compatible; MSIE 8.0; Windows NT 6.1; WOW64; Trident/4.0; SLCC2; .NET CLR 2.0.50727; .NET CLR 3.5.30729; .NET CLR 3.0.30729; Media Center PC 6.0)/QY-Player-Windows/2.0.102][PLAIN TEXT (GET /cp)][Plen Bins: 0,0,0,0,50,0,0,0,0,0,0,0,0,0,0,0,0,0,0,0,0,0,0,0,0,0,0,50,0,0,0,0,0,0,0,0,0,0,0,0,0,0,0,0,0,0,0,0]
	28	TCP 192.168.115.8:50502 <-> 202.108.14.236:80 [proto: 7/HTTP][ClearText][Confidence: DPI][cat: Streaming/17][1 pkts/947 bytes <-> 1 pkts/199 bytes][Goodput ratio: 94/73][0.09 sec][Hostname/SNI: msg.71.am][URL: msg.71.am/cp2.gif?a=4e3ae415a584748ac9aa31628f39d1e8&ai=&as=1:45:23|45&av=4.10.004&b=180932301&c=31&ct=5000000923447&d=2175&di=&dp=71000001&e=c4889e64ad9d9eeb9ff438910850c442&ec=&em=&fi=&g=0&l=MTE4LjE2My44Ljkw&mk=&nw=&od=5000000854934&oi=&p=a&pp=&rc=&rd=&][StatusCode: 200][User-Agent: Mozilla/4.0 (compatible; MSIE 8.0; Windows NT 6.1; WOW64; Trident/4.0; SLCC2; .NET CLR 2.0.50727; .NET CLR 3.5.30729; .NET CLR 3.0.30729; Media Center PC 6.0)/QY-Player-Windows/2.0.102][PLAIN TEXT (GET /cp)][Plen Bins: 0,0,0,0,50,0,0,0,0,0,0,0,0,0,0,0,0,0,0,0,0,0,0,0,0,0,0,50,0,0,0,0,0,0,0,0,0,0,0,0,0,0,0,0,0,0,0,0]
	29	TCP 192.168.115.8:50493 <-> 202.108.14.236:80 [proto: 7/HTTP][ClearText][Confidence: DPI][cat: Streaming/17][1 pkts/946 bytes <-> 1 pkts/199 bytes][Goodput ratio: 94/73][0.06 sec][Hostname/SNI: msg.71.am][URL: msg.71.am/cp2.gif?a=4e3ae415a584748ac9aa31628f39d1e8&ai=&as=1:23:23|45&av=4.10.004&b=180932301&c=31&ct=5000000927558&d=2175&di=&dp=71000001&e=c4889e64ad9d9eeb9ff438910850c442&ec=&em=&fi=&g=0&l=MTE4LjE2My44Ljkw&mk=&nw=&od=5000000858874&oi=&p=a&pp=&rc=&rd=&][StatusCode: 200][User-Agent: Mozilla/4.0 (compatible; MSIE 8.0; Windows NT 6.1; WOW64; Trident/4.0; SLCC2; .NET CLR 2.0.50727; .NET CLR 3.5.30729; .NET CLR 3.0.30729; Media Center PC 6.0)/QY-Player-Windows/2.0.102][PLAIN TEXT (GET /cp)][Plen Bins: 0,0,0,0,50,0,0,0,0,0,0,0,0,0,0,0,0,0,0,0,0,0,0,0,0,0,0,50,0,0,0,0,0,0,0,0,0,0,0,0,0,0,0,0,0,0,0,0]
	30	TCP 192.168.115.8:50771 <-> 202.108.14.236:80 [proto: 7/HTTP][ClearText][Confidence: DPI][cat: Streaming/17][1 pkts/946 bytes <-> 1 pkts/199 bytes][Goodput ratio: 94/73][0.10 sec][Hostname/SNI: msg.71.am][URL: msg.71.am/cp2.gif?a=4e3ae415a584748ac9aa31628f39d1e8&ai=&as=1:45:23|45&av=4.10.004&b=180932301&c=31&ct=5000000923447&d=2175&di=&dp=71000001&e=c4889e64ad9d9eeb9ff438910850c442&ec=&em=&fi=&g=0&l=MTE4LjE2My44Ljkw&mk=&nw=&od=5000000854934&oi=&p=a&pp=&rc=&rd=&][StatusCode: 200][User-Agent: Mozilla/4.0 (compatible; MSIE 8.0; Windows NT 6.1; WOW64; Trident/4.0; SLCC2; .NET CLR 2.0.50727; .NET CLR 3.5.30729; .NET CLR 3.0.30729; Media Center PC 6.0)/QY-Player-Windows/2.0.102][PLAIN TEXT (GET /cp)][Plen Bins: 0,0,0,0,50,0,0,0,0,0,0,0,0,0,0,0,0,0,0,0,0,0,0,0,0,0,0,50,0,0,0,0,0,0,0,0,0,0,0,0,0,0,0,0,0,0,0,0]
	31	TCP 192.168.115.8:50473 <-> 202.108.14.219:80 [proto: 7/HTTP][ClearText][Confidence: DPI][cat: Streaming/17][1 pkts/944 bytes <-> 1 pkts/199 bytes][Goodput ratio: 94/73][0.18 sec][Hostname/SNI: msg.71.am][URL: msg.71.am/core?t=1&reset=0&vfrmtp=1&tm1=&tm2=0&tm21=0&tm22=0&tm23=0&tm24=0&tm3=117&tm31=0&tm32=47&tm33=78&tm34=1&tm4=137&tm41=0&tm42=16&tm43=125&tm44=2&tm5=165&tm51=0&tm52=0&tm53=0&tm54=10&tm6=&tm62=0&tm63=0&tm7=0&tm71=0&tm72=0&tm73=0&tm8=0&tm81=0&tm82=0&][StatusCode: 200][User-Agent: QY-Player-Windows/2.0.102][PLAIN TEXT (GET /core)][Plen Bins: 0,0,0,0,50,0,0,0,0,0,0,0,0,0,0,0,0,0,0,0,0,0,0,0,0,0,0,50,0,0,0,0,0,0,0,0,0,0,0,0,0,0,0,0,0,0,0,0]
	32	TCP 192.168.115.8:50475 <-> 202.108.14.236:80 [proto: 7/HTTP][ClearText][Confidence: DPI][cat: Streaming/17][1 pkts/941 bytes <-> 1 pkts/199 bytes][Goodput ratio: 94/73][0.06 sec][Hostname/SNI: msg.71.am][URL: msg.71.am/cp2.gif?a=4e3ae415a584748ac9aa31628f39d1e8&ai=&as=1:2:1|2&av=4.10.004&b=204076701&c=6&ct=5000000926795&d=158&di=&dp=71000001&e=512ab77de7f67d49f24d3511778220d0&ec=&em=&fi=&g=0&l=MTE4LjE2My44Ljkw&mk=&nw=&od=5000000856344&oi=&p=a&pp=&rc=&rd=&ri=&s][StatusCode: 200][User-Agent: Mozilla/4.0 (compatible; MSIE 8.0; Windows NT 6.1; WOW64; Trident/4.0; SLCC2; .NET CLR 2.0.50727; .NET CLR 3.5.30729; .NET CLR 3.0.30729; Media Center PC 6.0)/QY-Player-Windows/2.0.102][PLAIN TEXT (GET /cp)][Plen Bins: 0,0,0,0,50,0,0,0,0,0,0,0,0,0,0,0,0,0,0,0,0,0,0,0,0,0,0,50,0,0,0,0,0,0,0,0,0,0,0,0,0,0,0,0,0,0,0,0]
	33	TCP 192.168.115.8:50500 <-> 23.41.133.163:80 [proto: 7/HTTP][ClearText][Confidence: DPI][cat: Web/5][1 pkts/289 bytes <-> 1 pkts/839 bytes][Goodput ratio: 81/93][0.00 sec][Hostname/SNI: s1.symcb.com][URL: s1.symcb.com/pca3-g5.crl][StatusCode: 200][User-Agent: Microsoft-CryptoAPI/6.1][PLAIN TEXT (GET /pca3)][Plen Bins: 0,0,0,0,0,0,0,50,0,0,0,0,0,0,0,0,0,0,0,0,0,0,0,0,50,0,0,0,0,0,0,0,0,0,0,0,0,0,0,0,0,0,0,0,0,0,0,0]
	34	TCP 192.168.115.8:50773 <-> 202.108.14.221:80 [proto: 7/HTTP][ClearText][Confidence: DPI][cat: Streaming/17][1 pkts/919 bytes <-> 1 pkts/199 bytes][Goodput ratio: 94/73][0.10 sec][Hostname/SNI: msg.71.am][URL: msg.71.am/core?t=1&reset=0&vfrmtp=1&tm1=&tm2=0&tm21=0&tm22=0&tm23=0&tm24=0&tm3=209&tm31=94&tm32=31&tm33=78&tm34=1&tm4=176&tm41=47&tm42=16&tm43=78&tm44=7&tm5=328&tm51=0&tm52=0&tm53=0&tm54=63&tm6=&tm62=0&tm63=0&tm7=0&tm71=0&tm72=0&tm73=0&tm8=0&tm81=0&tm82=0][StatusCode: 200][User-Agent: QY-Player-Windows/2.0.102][PLAIN TEXT (GET /core)][Plen Bins: 0,0,0,0,50,0,0,0,0,0,0,0,0,0,0,0,0,0,0,0,0,0,0,0,0,0,0,50,0,0,0,0,0,0,0,0,0,0,0,0,0,0,0,0,0,0,0,0]
	35	TCP 192.168.115.8:50466 <-> 203.66.182.24:80 [proto: 7.126/HTTP.Google][ClearText][Confidence: DPI][cat: Web/5][1 pkts/280 bytes <-> 1 pkts/813 bytes][Goodput ratio: 80/93][0.00 sec][Hostname/SNI: clients1.google.com][URL: clients1.google.com/ocsp/MEkwRzBFMEMwQTAJBgUrDgMCGgUABBTy4Gr5hYodjXCbSRkjeqm1Gih%2BZAQUSt0GFhu89mi1dvWBtrtiGrpagS8CCEYrFXkq2ugz][StatusCode: 200][User-Agent: Microsoft-CryptoAPI/6.1][PLAIN TEXT (GET /ocsp/MEkwRzBFMEMwQ)][Plen Bins: 0,0,0,0,0,0,0,50,0,0,0,0,0,0,0,0,0,0,0,0,0,0,0,50,0,0,0,0,0,0,0,0,0,0,0,0,0,0,0,0,0,0,0,0,0,0,0,0]
	36	UDP 192.168.5.50:52529 -> 239.255.255.250:1900 [proto: 12/SSDP][ClearText][Confidence: DPI][cat: System/18][6 pkts/1074 bytes -> 0 pkts/0 bytes][Goodput ratio: 76/0][15.01 sec][Hostname/SNI: 239.255.255.250:1900][bytes ratio: 1.000 (Upload)][IAT c2s/s2c min/avg/max/stddev: 2999/0 3001/0 3005/0 2/0][Pkt Len c2s/s2c min/avg/max/stddev: 179/0 179/0 179/0 0/0][PLAIN TEXT (SEARCH )][Plen Bins: 0,0,0,0,100,0,0,0,0,0,0,0,0,0,0,0,0,0,0,0,0,0,0,0,0,0,0,0,0,0,0,0,0,0,0,0,0,0,0,0,0,0,0,0,0,0,0,0]
	37	UDP 192.168.5.28:60023 -> 239.255.255.250:1900 [proto: 12/SSDP][ClearText][Confidence: DPI][cat: System/18][6 pkts/1050 bytes -> 0 pkts/0 bytes][Goodput ratio: 76/0][15.02 sec][Hostname/SNI: 239.255.255.250:1900][bytes ratio: 1.000 (Upload)][IAT c2s/s2c min/avg/max/stddev: 3000/0 3004/0 3014/0 5/0][Pkt Len c2s/s2c min/avg/max/stddev: 175/0 175/0 175/0 0/0][PLAIN TEXT (SEARCH )][Plen Bins: 0,0,0,0,100,0,0,0,0,0,0,0,0,0,0,0,0,0,0,0,0,0,0,0,0,0,0,0,0,0,0,0,0,0,0,0,0,0,0,0,0,0,0,0,0,0,0,0]
	38	UDP 192.168.5.57:59648 -> 239.255.255.250:1900 [proto: 12/SSDP][ClearText][Confidence: DPI][cat: System/18][6 pkts/1050 bytes -> 0 pkts/0 bytes][Goodput ratio: 76/0][15.04 sec][Hostname/SNI: 239.255.255.250:1900][bytes ratio: 1.000 (Upload)][IAT c2s/s2c min/avg/max/stddev: 2999/0 3008/0 3038/0 15/0][Pkt Len c2s/s2c min/avg/max/stddev: 175/0 175/0 175/0 0/0][PLAIN TEXT (SEARCH )][Plen Bins: 0,0,0,0,100,0,0,0,0,0,0,0,0,0,0,0,0,0,0,0,0,0,0,0,0,0,0,0,0,0,0,0,0,0,0,0,0,0,0,0,0,0,0,0,0,0,0,0]
	39	TCP 192.168.115.8:50504 -> 202.108.14.236:80 [proto: 7/HTTP][ClearText][Confidence: DPI][cat: Streaming/17][1 pkts/946 bytes -> 0 pkts/0 bytes][Goodput ratio: 94/0][< 1 sec][Hostname/SNI: msg.71.am][URL: msg.71.am/cp2.gif?a=4e3ae415a584748ac9aa31628f39d1e8&ai=&as=1:45:23|45&av=4.10.004&b=180932301&c=31&ct=5000000923447&d=2175&di=&dp=71000001&e=c4889e64ad9d9eeb9ff438910850c442&ec=&em=&fi=&g=0&l=MTE4LjE2My44Ljkw&mk=&nw=&od=5000000854934&oi=&p=a&pp=&rc=&rd=&][StatusCode: 0][User-Agent: Mozilla/4.0 (compatible; MSIE 8.0; Windows NT 6.1; WOW64; Trident/4.0; SLCC2; .NET CLR 2.0.50727; .NET CLR 3.5.30729; .NET CLR 3.0.30729; Media Center PC 6.0)/QY-Player-Windows/2.0.102][Risk: ** Unidirectional Traffic **][Risk Score: 10][Risk Info: No server to client traffic][PLAIN TEXT (GET /cp)][Plen Bins: 0,0,0,0,0,0,0,0,0,0,0,0,0,0,0,0,0,0,0,0,0,0,0,0,0,0,0,100,0,0,0,0,0,0,0,0,0,0,0,0,0,0,0,0,0,0,0,0]
	40	TCP 192.168.115.8:50769 <-> 101.227.200.11:80 [proto: 7.54/HTTP.PPStream][ClearText][Confidence: DPI][cat: Streaming/17][1 pkts/604 bytes <-> 1 pkts/291 bytes][Goodput ratio: 91/81][0.03 sec][Hostname/SNI: api.cupid.iqiyi.com][URL: api.cupid.iqiyi.com/ccs][StatusCode: 200][User-Agent: CookieClear_runxx][PLAIN TEXT (GET /ccs HTTP/1.1)][Plen Bins: 0,0,0,0,0,0,0,50,0,0,0,0,0,0,0,0,0,50,0,0,0,0,0,0,0,0,0,0,0,0,0,0,0,0,0,0,0,0,0,0,0,0,0,0,0,0,0,0]
	41	TCP 192.168.115.8:50498 <-> 36.110.220.15:80 [proto: 7/HTTP][ClearText][Confidence: DPI][cat: Web/5][1 pkts/694 bytes <-> 1 pkts/199 bytes][Goodput ratio: 92/73][0.09 sec][Hostname/SNI: msg.video.qiyi.com][URL: msg.video.qiyi.com/tmpstats.gif?type=recctplay20121226&usract=show&ppuid=-1&uid=aaoefdtqgfdepxc2tnv3piucgcb4eofn&event_id=4b0868920b0f8285320a9e00ee0369e5&cid=31&bkt=pps_c_zebra_main_default&area=pps_c_zebra&platform=2012&albumlist=470694500,471591300,465][StatusCode: 200][User-Agent: Mozilla/5.0 (compatible; MSIE 9.0; Windows NT 6.1; Trident/5.0)][PLAIN TEXT (GET /tmpstats.gif)][Plen Bins: 0,0,0,0,50,0,0,0,0,0,0,0,0,0,0,0,0,0,0,0,50,0,0,0,0,0,0,0,0,0,0,0,0,0,0,0,0,0,0,0,0,0,0,0,0,0,0,0]
	42	TCP 192.168.115.8:50503 <-> 202.108.14.219:80 [proto: 7/HTTP][ClearText][Confidence: DPI][cat: Streaming/17][1 pkts/683 bytes <-> 1 pkts/199 bytes][Goodput ratio: 92/73][0.06 sec][Hostname/SNI: msg.71.am][URL: msg.71.am/core?t=2&chipid=Intel%28R%29%20Core%28TM%29%20i5%2D2557M%20CPU%20%40%201%2E70GHz&tm=30&ra=1&ishcdn=2&pf=201&p=11&p1=114&p2=3000&sdktp=1&c1=6&r=500494600&aid=502959900&u=aaoefdtqgfdepxc2tnv3piucgcb4eofn&pu=&os=windows&v=5%2E2%2E15%2E2240&krv=2%2E][StatusCode: 200][User-Agent: QY-Player-Windows/2.0.102][PLAIN TEXT (GET /core)][Plen Bins: 0,0,0,0,50,0,0,0,0,0,0,0,0,0,0,0,0,0,0,50,0,0,0,0,0,0,0,0,0,0,0,0,0,0,0,0,0,0,0,0,0,0,0,0,0,0,0,0]
	43	UDP 192.168.5.41:50374 -> 239.255.255.250:1900 [proto: 12/SSDP][ClearText][Confidence: DPI][cat: System/18][5 pkts/875 bytes -> 0 pkts/0 bytes][Goodput ratio: 76/0][12.04 sec][Hostname/SNI: 239.255.255.250:1900][PLAIN TEXT (SEARCH )][Plen Bins: 0,0,0,0,100,0,0,0,0,0,0,0,0,0,0,0,0,0,0,0,0,0,0,0,0,0,0,0,0,0,0,0,0,0,0,0,0,0,0,0,0,0,0,0,0,0,0,0]
	44	TCP 192.168.115.8:50490 <-> 119.188.13.188:80 [proto: 7/HTTP][ClearText][Confidence: DPI][cat: Web/5][1 pkts/357 bytes <-> 1 pkts/479 bytes][Goodput ratio: 85/89][0.04 sec][Hostname/SNI: pdata.video.qiyi.com][URL: pdata.video.qiyi.com/2efc8cd5fbe0f4ee498fb1c2fc1de8b6/videos/v0/20160625/a5/bf/8de9bb946972a88589d1667862292130.f4v?&tn=137719][StatusCode: 200][User-Agent: QY-Player-Windows/2.0.102][PLAIN TEXT (GET /2efc)][Plen Bins: 0,0,0,0,0,0,0,0,0,50,0,0,0,50,0,0,0,0,0,0,0,0,0,0,0,0,0,0,0,0,0,0,0,0,0,0,0,0,0,0,0,0,0,0,0,0,0,0]
	45	TCP 192.168.115.8:50467 <-> 202.108.14.219:80 [proto: 7/HTTP][ClearText][Confidence: DPI][cat: Streaming/17][1 pkts/629 bytes <-> 1 pkts/199 bytes][Goodput ratio: 91/73][0.09 sec][Hostname/SNI: msg.71.am][URL: msg.71.am/core?t=11&ct=adstart&starttm=1097&reset=1&ra=2&pf=201&p=11&p1=114&p2=3000&sdktp=1&c1=6&r=500494600&aid=502959900&u=aaoefdtqgfdepxc2tnv3piucgcb4eofn&pu=&os=windows&v=5%2E2%2E15%2E2240&krv=2%2E0%2E102&dt=&hu=-1&rn=1467353119&islocal=0&as=d19f64047][StatusCode: 200][User-Agent: QY-Player-Windows/2.0.102][PLAIN TEXT (GET /core)][Plen Bins: 0,0,0,0,50,0,0,0,0,0,0,0,0,0,0,0,0,50,0,0,0,0,0,0,0,0,0,0,0,0,0,0,0,0,0,0,0,0,0,0,0,0,0,0,0,0,0,0]
	46	TCP 192.168.115.8:50484 <-> 202.108.14.219:80 [proto: 7/HTTP][ClearText][Confidence: DPI][cat: Streaming/17][1 pkts/622 bytes <-> 1 pkts/199 bytes][Goodput ratio: 91/73][0.09 sec][Hostname/SNI: msg.71.am][URL: msg.71.am/core?t=5&a=4&isfinish=2&tm=7&ra=2&tra=1&pf=201&p=11&p1=114&p2=3000&sdktp=1&c1=6&r=500494600&aid=502959900&u=aaoefdtqgfdepxc2tnv3piucgcb4eofn&pu=&os=windows&v=5%2E2%2E15%2E2240&krv=2%2E0%2E102&dt=&hu=-1&rn=1467353147&islocal=0&as=d19f64047b641cd6][StatusCode: 200][User-Agent: QY-Player-Windows/2.0.102][PLAIN TEXT (GET /core)][Plen Bins: 0,0,0,0,50,0,0,0,0,0,0,0,0,0,0,0,0,50,0,0,0,0,0,0,0,0,0,0,0,0,0,0,0,0,0,0,0,0,0,0,0,0,0,0,0,0,0,0]
	47	TCP 192.168.115.8:50477 <-> 202.108.14.219:80 [proto: 7/HTTP][ClearText][Confidence: DPI][cat: Streaming/17][1 pkts/614 bytes <-> 1 pkts/199 bytes][Goodput ratio: 91/73][0.17 sec][Hostname/SNI: msg.71.am][URL: msg.71.am/core?t=11&ct=adend&reset=0&ra=2&pf=201&p=11&p1=114&p2=3000&sdktp=1&c1=6&r=500494600&aid=502959900&u=aaoefdtqgfdepxc2tnv3piucgcb4eofn&pu=&os=windows&v=5%2E2%2E15%2E2240&krv=2%2E0%2E102&dt=&hu=-1&rn=1467353140&islocal=0&as=d19f64047b641cd6ff096b04][StatusCode: 200][User-Agent: QY-Player-Windows/2.0.102][PLAIN TEXT (GET /core)][Plen Bins: 0,0,0,0,50,0,0,0,0,0,0,0,0,0,0,0,0,50,0,0,0,0,0,0,0,0,0,0,0,0,0,0,0,0,0,0,0,0,0,0,0,0,0,0,0,0,0,0]
	48	TCP 192.168.115.8:50774 <-> 202.108.14.219:80 [proto: 7/HTTP][ClearText][Confidence: DPI][cat: Streaming/17][1 pkts/587 bytes <-> 1 pkts/199 bytes][Goodput ratio: 91/73][0.13 sec][Hostname/SNI: msg.71.am][URL: msg.71.am/core?t=11&ct=adend&reset=0&ra=1&pf=201&p=11&p1=114&p2=3000&sdktp=1&c1=31&r=479531000&aid=180932301&u=aaoefdtqgfdepxc2tnv3piucgcb4eofn&pu=&os=Windows%207&v=5%2E2%2E15%2E2240&krv=2%2E0%2E102&dt=&hu=-1&rn=1467353195&islocal=0&as=0311c5a0d5596063db5][StatusCode: 200][User-Agent: QY-Player-Windows/2.0.102][PLAIN TEXT (GET /core)][Plen Bins: 0,0,0,0,50,0,0,0,0,0,0,0,0,0,0,0,50,0,0,0,0,0,0,0,0,0,0,0,0,0,0,0,0,0,0,0,0,0,0,0,0,0,0,0,0,0,0,0]
	49	TCP 192.168.115.8:50469 <-> 202.108.14.219:80 [proto: 7/HTTP][ClearText][Confidence: DPI][cat: Streaming/17][1 pkts/573 bytes <-> 1 pkts/199 bytes][Goodput ratio: 90/73][0.15 sec][Hostname/SNI: msg.71.am][URL: msg.71.am/core?t=5&a=2&ra=1&pf=201&p=11&p1=114&p2=3000&sdktp=1&c1=31&r=479531000&aid=180932301&u=aaoefdtqgfdepxc2tnv3piucgcb4eofn&pu=&os=Windows%207&v=5%2E2%2E15%2E2240&krv=2%2E0%2E102&dt=&hu=-1&rn=1467353139&islocal=0&as=0311c5a0d5596063db5944bd76b6cbff&][StatusCode: 200][User-Agent: QY-Player-Windows/2.0.102][PLAIN TEXT (GET /core)][Plen Bins: 0,0,0,0,50,0,0,0,0,0,0,0,0,0,0,0,50,0,0,0,0,0,0,0,0,0,0,0,0,0,0,0,0,0,0,0,0,0,0,0,0,0,0,0,0,0,0,0]
	50	TCP 192.168.115.8:50482 <-> 140.205.243.64:80 [proto: 7/HTTP][ClearText][Confidence: DPI][cat: Web/5][1 pkts/444 bytes <-> 1 pkts/283 bytes][Goodput ratio: 88/81][0.09 sec][Hostname/SNI: cmc.tanx.com][URL: cmc.tanx.com/andc?andc_uid=6693851615885049011&andc_ver=1][StatusCode: 200][User-Agent: Mozilla/5.0 (compatible; MSIE 9.0; Windows NT 6.1; Trident/5.0)][PLAIN TEXT (GET /andc)][Plen Bins: 0,0,0,0,0,0,0,50,0,0,0,0,50,0,0,0,0,0,0,0,0,0,0,0,0,0,0,0,0,0,0,0,0,0,0,0,0,0,0,0,0,0,0,0,0,0,0,0]
	51	TCP 192.168.115.8:50768 <-> 223.26.106.19:80 [proto: 7/HTTP][ClearText][Confidence: DPI][cat: Web/5][1 pkts/198 bytes <-> 1 pkts/526 bytes][Goodput ratio: 72/90][0.00 sec][Hostname/SNI: static.qiyi.com][URL: static.qiyi.com/ext/common/qisu2/masblog.ini][StatusCode: 200][User-Agent: masblog_runxx][PLAIN TEXT (GET /ext/common/qisu2/masblog.i)][Plen Bins: 0,0,0,0,50,0,0,0,0,0,0,0,0,0,50,0,0,0,0,0,0,0,0,0,0,0,0,0,0,0,0,0,0,0,0,0,0,0,0,0,0,0,0,0,0,0,0,0]
	52	TCP 192.168.5.15:65128 <-> 68.233.253.133:80 [proto: 7/HTTP][ClearText][Confidence: DPI][cat: Web/5][1 pkts/331 bytes <-> 1 pkts/390 bytes][Goodput ratio: 80/83][0.22 sec][Hostname/SNI: api.magicansoft.com][URL: api.magicansoft.com/comMagicanApi/composite/app.php/Global/Index/ip][StatusCode: 502][User-Agent: Magican (unknown version) CFNetwork/720.5.7 Darwin/14.5.0 (x86_64)][PLAIN TEXT (GET /comMagicanApi/composite/ap)][Plen Bins: 0,0,0,0,0,0,0,0,50,0,50,0,0,0,0,0,0,0,0,0,0,0,0,0,0,0,0,0,0,0,0,0,0,0,0,0,0,0,0,0,0,0,0,0,0,0,0,0]
	53	TCP 192.168.115.8:50509 <-> 106.38.219.107:80 [proto: 7/HTTP][ClearText][Confidence: DPI][cat: Web/5][1 pkts/163 bytes <-> 2 pkts/557 bytes][Goodput ratio: 66/80][0.09 sec][Hostname/SNI: iplocation.geo.qiyi.com][URL: iplocation.geo.qiyi.com/cityjson][StatusCode: 200][User-Agent: QYAgent_runxx][PLAIN TEXT (GET /cityjson HTTP/1.1)][Plen Bins: 33,0,0,33,0,0,0,0,0,0,0,0,0,33,0,0,0,0,0,0,0,0,0,0,0,0,0,0,0,0,0,0,0,0,0,0,0,0,0,0,0,0,0,0,0,0,0,0]
	54	TCP 192.168.5.15:65127 <-> 68.233.253.133:80 [proto: 7/HTTP][ClearText][Confidence: DPI][cat: Web/5][1 pkts/323 bytes <-> 1 pkts/390 bytes][Goodput ratio: 79/83][0.21 sec][Hostname/SNI: api.magicansoft.com][URL: api.magicansoft.com/comMagicanApi/index.php/ToolBox/version][StatusCode: 502][User-Agent: Magican (unknown version) CFNetwork/720.5.7 Darwin/14.5.0 (x86_64)][PLAIN TEXT (GET /comMagicanApi/index.php/To)][Plen Bins: 0,0,0,0,0,0,0,0,50,0,50,0,0,0,0,0,0,0,0,0,0,0,0,0,0,0,0,0,0,0,0,0,0,0,0,0,0,0,0,0,0,0,0,0,0,0,0,0]
	55	TCP 192.168.115.8:50766 <-> 223.26.106.20:80 [proto: 7/HTTP][ClearText][Confidence: DPI][cat: Web/5][1 pkts/198 bytes <-> 1 pkts/493 bytes][Goodput ratio: 72/89][0.00 sec][Hostname/SNI: static.qiyi.com][URL: static.qiyi.com/ext/common/qisu2/masflag.ini][StatusCode: 200][User-Agent: masflag_runxx][PLAIN TEXT (GET /ext/common/qisu2/masflag.i)][Plen Bins: 0,0,0,0,50,0,0,0,0,0,0,0,0,50,0,0,0,0,0,0,0,0,0,0,0,0,0,0,0,0,0,0,0,0,0,0,0,0,0,0,0,0,0,0,0,0,0,0]
	56	TCP 192.168.115.8:50487 -> 202.108.14.219:80 [proto: 7/HTTP][ClearText][Confidence: DPI][cat: Streaming/17][1 pkts/683 bytes -> 0 pkts/0 bytes][Goodput ratio: 92/0][< 1 sec][Hostname/SNI: msg.71.am][URL: msg.71.am/core?t=2&chipid=Intel%28R%29%20Core%28TM%29%20i5%2D2557M%20CPU%20%40%201%2E70GHz&tm=15&ra=1&ishcdn=2&pf=201&p=11&p1=114&p2=3000&sdktp=1&c1=6&r=500494600&aid=502959900&u=aaoefdtqgfdepxc2tnv3piucgcb4eofn&pu=&os=windows&v=5%2E2%2E15%2E2240&krv=2%2E][StatusCode: 0][User-Agent: QY-Player-Windows/2.0.102][Risk: ** Unidirectional Traffic **][Risk Score: 10][Risk Info: No server to client traffic][PLAIN TEXT (GET /core)][Plen Bins: 0,0,0,0,0,0,0,0,0,0,0,0,0,0,0,0,0,0,0,100,0,0,0,0,0,0,0,0,0,0,0,0,0,0,0,0,0,0,0,0,0,0,0,0,0,0,0,0]
	57	TCP 192.168.115.8:50489 <-> 119.188.13.188:80 [proto: 7/HTTP][ClearText][Confidence: DPI][cat: Web/5][1 pkts/253 bytes <-> 1 pkts/430 bytes][Goodput ratio: 78/87][0.04 sec][Hostname/SNI: pdata.video.qiyi.com][URL: pdata.video.qiyi.com/k][StatusCode: 200][User-Agent: QY-Player-Windows/2.0.102][PLAIN TEXT (GET /k HTTP/1.1)][Plen Bins: 0,0,0,0,0,0,50,0,0,0,0,50,0,0,0,0,0,0,0,0,0,0,0,0,0,0,0,0,0,0,0,0,0,0,0,0,0,0,0,0,0,0,0,0,0,0,0,0]
	58	TCP 192.168.115.8:50772 <-> 123.125.111.70:80 [proto: 7.54/HTTP.PPStream][ClearText][Confidence: DPI][cat: Streaming/17][1 pkts/399 bytes <-> 1 pkts/275 bytes][Goodput ratio: 86/80][0.14 sec][Hostname/SNI: nl.rcd.iqiyi.com][URL: nl.rcd.iqiyi.com/apis/urc/setrc?ckuid=aaoefdtqgfdepxc2tnv3piucgcb4eofn&tvId=479531000&videoPlayTime=-1&addtime=1467353195&terminalId=12&vType=0&com=2&ppsTvidType=2&agent_type=30][StatusCode: 200][User-Agent: Qiyi List Client PC 5.2.15.2240][PLAIN TEXT (GET /apis/urc/setrc)][Plen Bins: 0,0,0,0,0,0,50,0,0,0,50,0,0,0,0,0,0,0,0,0,0,0,0,0,0,0,0,0,0,0,0,0,0,0,0,0,0,0,0,0,0,0,0,0,0,0,0,0]
	59	TCP 192.168.115.8:50775 <-> 123.125.111.70:80 [proto: 7.54/HTTP.PPStream][ClearText][Confidence: DPI][cat: Streaming/17][1 pkts/399 bytes <-> 1 pkts/275 bytes][Goodput ratio: 86/80][3.07 sec][Hostname/SNI: nl.rcd.iqiyi.com][URL: nl.rcd.iqiyi.com/apis/urc/setrc?ckuid=aaoefdtqgfdepxc2tnv3piucgcb4eofn&tvId=479531000&videoPlayTime=-1&addtime=1467353195&terminalId=12&vType=0&com=2&ppsTvidType=2&agent_type=30][StatusCode: 200][User-Agent: Qiyi List Client PC 5.2.15.2240][PLAIN TEXT (GET /apis/urc/setrc)][Plen Bins: 0,0,0,0,0,0,50,0,0,0,50,0,0,0,0,0,0,0,0,0,0,0,0,0,0,0,0,0,0,0,0,0,0,0,0,0,0,0,0,0,0,0,0,0,0,0,0,0]
	60	TCP 192.168.115.8:50470 <-> 202.108.14.236:80 [proto: 7.54/HTTP.PPStream][ClearText][Confidence: DPI][cat: Streaming/17][1 pkts/424 bytes <-> 1 pkts/194 bytes][Goodput ratio: 87/72][0.11 sec][Hostname/SNI: msg.iqiyi.com][URL: msg.iqiyi.com/b?t=5&pf=201&p=11&p1=114&a=34&ct=onclick&type=pc&as=&clt=pc_play_player_click&mv=5.2.15.2240&pu=&rn=0FE172EC44C44B86AEEDE54AA00541C457406&u=aaoefdtqgfdepxc2tnv3piucgcb4eofn&v=2.0.102.30147][StatusCode: 200][User-Agent: Qiyi List Client PC 5.2.15.2240][PLAIN TEXT (GET /b)][Plen Bins: 0,0,0,0,50,0,0,0,0,0,0,50,0,0,0,0,0,0,0,0,0,0,0,0,0,0,0,0,0,0,0,0,0,0,0,0,0,0,0,0,0,0,0,0,0,0,0,0]
	61	TCP 192.168.115.8:50508 <-> 223.26.106.19:80 [proto: 7/HTTP][ClearText][Confidence: DPI][cat: Web/5][1 pkts/198 bytes <-> 1 pkts/420 bytes][Goodput ratio: 72/87][0.00 sec][Hostname/SNI: static.qiyi.com][URL: static.qiyi.com/ext/common/qisu2/QYAgent.ini][StatusCode: 200][User-Agent: QYAgent_runxx][PLAIN TEXT (GET /ext/common/qisu2/Q)][Plen Bins: 0,0,0,0,50,0,0,0,0,0,0,50,0,0,0,0,0,0,0,0,0,0,0,0,0,0,0,0,0,0,0,0,0,0,0,0,0,0,0,0,0,0,0,0,0,0,0,0]
	62	TCP 192.168.115.8:50483 <-> 202.108.14.219:80 [proto: 7/HTTP][ClearText][Confidence: DPI][cat: Streaming/17][1 pkts/417 bytes <-> 1 pkts/199 bytes][Goodput ratio: 87/73][0.09 sec][Hostname/SNI: msg.71.am][URL: msg.71.am/core?t=1503291&type=vs&uuid=aaoefdtqgfdepxc2tnv3piucgcb4eofn&area=OVERSEA|TW_HiNet&from=BS_High&to=BS_Standard&player_switch_bs_time=41714&average_download_speed_=158515.200000][StatusCode: 200][User-Agent: QY-Player-Windows/2.0.102][PLAIN TEXT (GET /core)][Plen Bins: 0,0,0,0,50,0,0,0,0,0,0,50,0,0,0,0,0,0,0,0,0,0,0,0,0,0,0,0,0,0,0,0,0,0,0,0,0,0,0,0,0,0,0,0,0,0,0,0]
	63	TCP 192.168.115.8:50776 <-> 111.206.22.77:80 [proto: 7.54/HTTP.PPStream][ClearText][Confidence: DPI][cat: Streaming/17][1 pkts/394 bytes <-> 1 pkts/194 bytes][Goodput ratio: 86/72][0.09 sec][Hostname/SNI: msg.iqiyi.com][URL: msg.iqiyi.com/b?t=11&pf=201&p=11&p1=114&s1=0&ct=140819_adsyn&adsyn=1&brinfo=IE_IE9_9.0.8112.16421_1&os=Windows%207&rn=19252&u=aaoefdtqgfdepxc2tnv3piucgcb4eofn&v=5.2.15.2240][StatusCode: 200][User-Agent: Qiyi List Client PC 5.2.15.2240][PLAIN TEXT (GET /b)][Plen Bins: 0,0,0,0,50,0,0,0,0,0,50,0,0,0,0,0,0,0,0,0,0,0,0,0,0,0,0,0,0,0,0,0,0,0,0,0,0,0,0,0,0,0,0,0,0,0,0,0]
	64	TCP 192.168.115.8:50765 <-> 36.110.220.15:80 [proto: 7/HTTP][ClearText][Confidence: DPI][cat: Web/5][1 pkts/264 bytes <-> 1 pkts/199 bytes][Goodput ratio: 79/73][0.07 sec][Hostname/SNI: msg.video.qiyi.com][URL: msg.video.qiyi.com/tmpstats.gif?method=qiubiter&os=windows-6.1.7601_sp1&uuid=350C3F1AC75D40bc90D602DA4E67A72D&softversion=1.0.0.1&source=pps&tasktype=gettaskinfo][StatusCode: 200][User-Agent: QIYiAngent][PLAIN TEXT (GET /tmpstats.gif)][Plen Bins: 0,0,0,0,50,0,50,0,0,0,0,0,0,0,0,0,0,0,0,0,0,0,0,0,0,0,0,0,0,0,0,0,0,0,0,0,0,0,0,0,0,0,0,0,0,0,0,0]
	65	TCP 202.108.14.219:80 -> 192.168.115.8:50295 [proto: 7/HTTP][ClearText][Confidence: DPI][cat: Web/5][2 pkts/398 bytes -> 0 pkts/0 bytes][Goodput ratio: 73/0][0.07 sec][Risk: ** Unidirectional Traffic **][Risk Score: 10][Risk Info: No client to server traffic][PLAIN TEXT (HTTP/1.1 200 OK)][Plen Bins: 0,0,0,0,100,0,0,0,0,0,0,0,0,0,0,0,0,0,0,0,0,0,0,0,0,0,0,0,0,0,0,0,0,0,0,0,0,0,0,0,0,0,0,0,0,0,0,0]
	66	UDP 192.168.5.48:63930 -> 239.255.255.250:1900 [proto: 12/SSDP][ClearText][Confidence: DPI][cat: System/18][2 pkts/358 bytes -> 0 pkts/0 bytes][Goodput ratio: 76/0][3.00 sec][Hostname/SNI: 239.255.255.250:1900][PLAIN TEXT (SEARCH )][Plen Bins: 0,0,0,0,100,0,0,0,0,0,0,0,0,0,0,0,0,0,0,0,0,0,0,0,0,0,0,0,0,0,0,0,0,0,0,0,0,0,0,0,0,0,0,0,0,0,0,0]
	67	TCP 117.79.81.135:80 -> 192.168.115.8:50443 [proto: 7/HTTP][ClearText][Confidence: DPI][cat: Web/5][1 pkts/347 bytes -> 0 pkts/0 bytes][Goodput ratio: 84/0][< 1 sec][Risk: ** Unidirectional Traffic **][Risk Score: 10][Risk Info: No client to server traffic][PLAIN TEXT (HTTP/1.1 302 Found)][Plen Bins: 0,0,0,0,0,0,0,0,0,100,0,0,0,0,0,0,0,0,0,0,0,0,0,0,0,0,0,0,0,0,0,0,0,0,0,0,0,0,0,0,0,0,0,0,0,0,0,0]
	68	TCP 192.168.115.8:50781 -> 223.26.106.20:80 [proto: 7.54/HTTP.PPStream][ClearText][Confidence: DPI][cat: Streaming/17][1 pkts/303 bytes -> 0 pkts/0 bytes][Goodput ratio: 82/0][< 1 sec][Hostname/SNI: preimage1.qiyipic.com][URL: preimage1.qiyipic.com/preimage/20160506/f0/1f/v_110359998_m_611_160_90_3.jpg?no=3][StatusCode: 0][User-Agent: Qiyi List Client PC 5.2.15.2240][Risk: ** Unidirectional Traffic **][Risk Score: 10][Risk Info: No server to client traffic][PLAIN TEXT (GET /preimage/20160506/f0/1)][Plen Bins: 0,0,0,0,0,0,0,100,0,0,0,0,0,0,0,0,0,0,0,0,0,0,0,0,0,0,0,0,0,0,0,0,0,0,0,0,0,0,0,0,0,0,0,0,0,0,0,0]
	69	TCP 202.108.14.219:80 -> 192.168.115.8:50506 [proto: 7/HTTP][ClearText][Confidence: DPI][cat: Web/5][1 pkts/199 bytes -> 0 pkts/0 bytes][Goodput ratio: 73/0][< 1 sec][Risk: ** Unidirectional Traffic **][Risk Score: 10][Risk Info: No client to server traffic][PLAIN TEXT (HTTP/1.1 200 OK)][Plen Bins: 0,0,0,0,100,0,0,0,0,0,0,0,0,0,0,0,0,0,0,0,0,0,0,0,0,0,0,0,0,0,0,0,0,0,0,0,0,0,0,0,0,0,0,0,0,0,0,0]
	70	UDP 192.168.5.63:60976 -> 239.255.255.250:1900 [proto: 12/SSDP][ClearText][Confidence: DPI][cat: System/18][1 pkts/165 bytes -> 0 pkts/0 bytes][Goodput ratio: 74/0][< 1 sec][Hostname/SNI: 239.255.255.250:1900][PLAIN TEXT (SEARCH )][Plen Bins: 0,0,0,100,0,0,0,0,0,0,0,0,0,0,0,0,0,0,0,0,0,0,0,0,0,0,0,0,0,0,0,0,0,0,0,0,0,0,0,0,0,0,0,0,0,0,0,0]
	71	UDP 192.168.5.63:39383 -> 239.255.255.250:1900 [proto: 12/SSDP][ClearText][Confidence: DPI][cat: System/18][1 pkts/130 bytes -> 0 pkts/0 bytes][Goodput ratio: 67/0][< 1 sec][Hostname/SNI: 239.255.255.250:1900][PLAIN TEXT (SEARCH )][Plen Bins: 0,0,100,0,0,0,0,0,0,0,0,0,0,0,0,0,0,0,0,0,0,0,0,0,0,0,0,0,0,0,0,0,0,0,0,0,0,0,0,0,0,0,0,0,0,0,0,0]
	72	TCP 192.168.115.8:50462 -> 202.108.14.236:80 [proto: 7/HTTP][ClearText][Confidence: Match by port][cat: Web/5][2 pkts/108 bytes -> 0 pkts/0 bytes][Goodput ratio: 0/0][0.00 sec][Risk: ** Unidirectional Traffic **][Risk Score: 10][Risk Info: No server to client traffic][Plen Bins: 0,0,0,0,0,0,0,0,0,0,0,0,0,0,0,0,0,0,0,0,0,0,0,0,0,0,0,0,0,0,0,0,0,0,0,0,0,0,0,0,0,0,0,0,0,0,0,0]
	73	TCP 192.168.5.15:65125 -> 68.233.253.133:80 [proto: 7/HTTP][ClearText][Confidence: Match by port][cat: Web/5][1 pkts/66 bytes -> 0 pkts/0 bytes][Goodput ratio: 0/0][< 1 sec][Risk: ** Unidirectional Traffic **][Risk Score: 10][Risk Info: No server to client traffic][Plen Bins: 0,0,0,0,0,0,0,0,0,0,0,0,0,0,0,0,0,0,0,0,0,0,0,0,0,0,0,0,0,0,0,0,0,0,0,0,0,0,0,0,0,0,0,0,0,0,0,0]


Undetected flows:
	1	UDP 1.173.5.226:22636 <-> 192.168.115.8:22793 [proto: 0/Unknown][ClearText][Confidence: Unknown][130 pkts/143912 bytes <-> 270 pkts/21334 bytes][Goodput ratio: 96/47][0.55 sec][bytes ratio: 0.742 (Upload)][IAT c2s/s2c min/avg/max/stddev: 0/0 4/1 17/19 5/4][Pkt Len c2s/s2c min/avg/max/stddev: 1107/79 1107/79 1109/81 0/0][PLAIN TEXT (lllllllh)][Plen Bins: 0,67,0,0,0,0,0,0,0,0,0,0,0,0,0,0,0,0,0,0,0,0,0,0,0,0,0,0,0,0,0,0,0,32,0,0,0,0,0,0,0,0,0,0,0,0,0,0]
	2	UDP 192.168.115.8:22793 <-> 114.42.0.158:7716 [proto: 0/Unknown][ClearText][Confidence: Unknown][229 pkts/18091 bytes <-> 109 pkts/120663 bytes][Goodput ratio: 47/96][0.54 sec][bytes ratio: -0.739 (Download)][IAT c2s/s2c min/avg/max/stddev: 0/0 2/4 30/32 5/7][Pkt Len c2s/s2c min/avg/max/stddev: 79/1107 79/1107 79/1107 0/0][PLAIN TEXT (66666662)][Plen Bins: 0,67,0,0,0,0,0,0,0,0,0,0,0,0,0,0,0,0,0,0,0,0,0,0,0,0,0,0,0,0,0,0,0,32,0,0,0,0,0,0,0,0,0,0,0,0,0,0]
	3	UDP 118.171.15.56:5544 <-> 192.168.115.8:22793 [proto: 0/Unknown][ClearText][Confidence: Unknown][30 pkts/33210 bytes <-> 71 pkts/5609 bytes][Goodput ratio: 96/47][0.55 sec][bytes ratio: 0.711 (Upload)][IAT c2s/s2c min/avg/max/stddev: 2/0 17/7 25/25 7/9][Pkt Len c2s/s2c min/avg/max/stddev: 1107/79 1107/79 1107/79 0/0][PLAIN TEXT (YYYYYYY)][Plen Bins: 0,70,0,0,0,0,0,0,0,0,0,0,0,0,0,0,0,0,0,0,0,0,0,0,0,0,0,0,0,0,0,0,0,29,0,0,0,0,0,0,0,0,0,0,0,0,0,0]
	4	UDP 192.168.115.8:22793 <-> 219.228.107.156:1250 [proto: 0/Unknown][ClearText][Confidence: Unknown][34 pkts/2686 bytes <-> 11 pkts/12177 bytes][Goodput ratio: 47/96][0.51 sec][bytes ratio: -0.639 (Download)][IAT c2s/s2c min/avg/max/stddev: 0/30 15/46 45/68 18/14][Pkt Len c2s/s2c min/avg/max/stddev: 79/1107 79/1107 79/1107 0/0][PLAIN TEXT (CCCCCCC)][Plen Bins: 0,75,0,0,0,0,0,0,0,0,0,0,0,0,0,0,0,0,0,0,0,0,0,0,0,0,0,0,0,0,0,0,0,24,0,0,0,0,0,0,0,0,0,0,0,0,0,0]
	5	UDP 192.168.115.8:22793 <-> 222.197.138.12:6956 [proto: 0/Unknown][ClearText][Confidence: Unknown][30 pkts/2370 bytes <-> 10 pkts/10042 bytes][Goodput ratio: 47/96][0.54 sec][bytes ratio: -0.618 (Download)][IAT c2s/s2c min/avg/max/stddev: 0/12 17/44 71/77 22/23][Pkt Len c2s/s2c min/avg/max/stddev: 79/61 79/1004 79/1125 0/314][PLAIN TEXT (hhhhhhhl)][Plen Bins: 2,75,0,0,0,0,0,0,0,0,0,0,0,0,0,0,0,0,0,0,0,0,0,0,0,0,0,0,0,0,0,0,0,22,0,0,0,0,0,0,0,0,0,0,0,0,0,0]
	6	UDP 192.168.115.8:22793 <-> 202.198.7.89:16039 [proto: 0/Unknown][ClearText][Confidence: Unknown][2 pkts/158 bytes <-> 3 pkts/3323 bytes][Goodput ratio: 47/96][0.22 sec][PLAIN TEXT (bTTTUQX)][Plen Bins: 0,40,0,0,0,0,0,0,0,0,0,0,0,0,0,0,0,0,0,0,0,0,0,0,0,0,0,0,0,0,0,0,0,60,0,0,0,0,0,0,0,0,0,0,0,0,0,0]
	7	UDP 192.168.115.8:22793 -> 1.169.136.116:17951 [proto: 0/Unknown][ClearText][Confidence: Unknown][4 pkts/512 bytes -> 0 pkts/0 bytes][Goodput ratio: 67/0][0.00 sec][Risk: ** Unidirectional Traffic **][Risk Score: 10][Risk Info: No server to client traffic][PLAIN TEXT (444444)][Plen Bins: 50,0,0,0,50,0,0,0,0,0,0,0,0,0,0,0,0,0,0,0,0,0,0,0,0,0,0,0,0,0,0,0,0,0,0,0,0,0,0,0,0,0,0,0,0,0,0,0]
	8	UDP 192.168.115.8:22793 -> 114.41.144.153:10492 [proto: 0/Unknown][ClearText][Confidence: Unknown][4 pkts/512 bytes -> 0 pkts/0 bytes][Goodput ratio: 67/0][0.00 sec][Risk: ** Unidirectional Traffic **][Risk Score: 10][Risk Info: No server to client traffic][PLAIN TEXT (444444)][Plen Bins: 50,0,0,0,50,0,0,0,0,0,0,0,0,0,0,0,0,0,0,0,0,0,0,0,0,0,0,0,0,0,0,0,0,0,0,0,0,0,0,0,0,0,0,0,0,0,0,0]
	9	UDP 192.168.115.8:22793 -> 218.61.39.103:17788 [proto: 0/Unknown][ClearText][Confidence: Unknown][2 pkts/300 bytes -> 0 pkts/0 bytes][Goodput ratio: 72/0][< 1 sec][Risk: ** Unidirectional Traffic **][Risk Score: 10][Risk Info: No server to client traffic][Plen Bins: 0,0,0,100,0,0,0,0,0,0,0,0,0,0,0,0,0,0,0,0,0,0,0,0,0,0,0,0,0,0,0,0,0,0,0,0,0,0,0,0,0,0,0,0,0,0,0,0]
	10	UDP 192.168.115.8:22793 -> 119.188.133.182:17788 [proto: 0/Unknown][ClearText][Confidence: Unknown][2 pkts/260 bytes -> 0 pkts/0 bytes][Goodput ratio: 67/0][< 1 sec][Risk: ** Unidirectional Traffic **][Risk Score: 10][Risk Info: No server to client traffic][Plen Bins: 0,0,100,0,0,0,0,0,0,0,0,0,0,0,0,0,0,0,0,0,0,0,0,0,0,0,0,0,0,0,0,0,0,0,0,0,0,0,0,0,0,0,0,0,0,0,0,0]
	11	UDP 192.168.115.8:22793 -> 183.61.167.104:17788 [proto: 0/Unknown][ClearText][Confidence: Unknown][2 pkts/260 bytes -> 0 pkts/0 bytes][Goodput ratio: 67/0][< 1 sec][Risk: ** Unidirectional Traffic **][Risk Score: 10][Risk Info: No server to client traffic][Plen Bins: 0,0,100,0,0,0,0,0,0,0,0,0,0,0,0,0,0,0,0,0,0,0,0,0,0,0,0,0,0,0,0,0,0,0,0,0,0,0,0,0,0,0,0,0,0,0,0,0]
	12	UDP 192.168.115.8:22793 -> 218.61.39.87:17788 [proto: 0/Unknown][ClearText][Confidence: Unknown][2 pkts/260 bytes -> 0 pkts/0 bytes][Goodput ratio: 67/0][0.00 sec][Risk: ** Unidirectional Traffic **][Risk Score: 10][Risk Info: No server to client traffic][Plen Bins: 0,0,100,0,0,0,0,0,0,0,0,0,0,0,0,0,0,0,0,0,0,0,0,0,0,0,0,0,0,0,0,0,0,0,0,0,0,0,0,0,0,0,0,0,0,0,0,0]
	13	UDP 183.228.182.44:13913 <-> 192.168.115.8:22793 [proto: 0/Unknown][ClearText][Confidence: Unknown][1 pkts/87 bytes <-> 2 pkts/170 bytes][Goodput ratio: 51/50][< 1 sec][PLAIN TEXT (wsssss)][Plen Bins: 0,100,0,0,0,0,0,0,0,0,0,0,0,0,0,0,0,0,0,0,0,0,0,0,0,0,0,0,0,0,0,0,0,0,0,0,0,0,0,0,0,0,0,0,0,0,0,0]
	14	UDP 192.168.115.8:22793 -> 183.61.167.82:17788 [proto: 0/Unknown][ClearText][Confidence: Unknown][2 pkts/188 bytes -> 0 pkts/0 bytes][Goodput ratio: 55/0][0.00 sec][Risk: ** Unidirectional Traffic **][Risk Score: 10][Risk Info: No server to client traffic][Plen Bins: 0,100,0,0,0,0,0,0,0,0,0,0,0,0,0,0,0,0,0,0,0,0,0,0,0,0,0,0,0,0,0,0,0,0,0,0,0,0,0,0,0,0,0,0,0,0,0,0]
	15	UDP 192.168.115.8:22793 -> 220.130.154.23:35941 [proto: 0/Unknown][ClearText][Confidence: Unknown][2 pkts/174 bytes -> 0 pkts/0 bytes][Goodput ratio: 51/0][0.00 sec][Risk: ** Unidirectional Traffic **][Risk Score: 10][Risk Info: No client to server traffic][Plen Bins: 0,100,0,0,0,0,0,0,0,0,0,0,0,0,0,0,0,0,0,0,0,0,0,0,0,0,0,0,0,0,0,0,0,0,0,0,0,0,0,0,0,0,0,0,0,0,0,0]
	16	UDP 192.168.115.8:22793 -> 111.249.53.196:32443 [proto: 0/Unknown][ClearText][Confidence: Unknown][2 pkts/158 bytes -> 0 pkts/0 bytes][Goodput ratio: 47/0][0.00 sec][Risk: ** Unidirectional Traffic **][Risk Score: 10][Risk Info: No client to server traffic][PLAIN TEXT (222222266)][Plen Bins: 0,100,0,0,0,0,0,0,0,0,0,0,0,0,0,0,0,0,0,0,0,0,0,0,0,0,0,0,0,0,0,0,0,0,0,0,0,0,0,0,0,0,0,0,0,0,0,0]
	17	UDP 192.168.115.8:22793 -> 1.175.128.104:5185 [proto: 0/Unknown][ClearText][Confidence: Unknown][2 pkts/132 bytes -> 0 pkts/0 bytes][Goodput ratio: 36/0][< 1 sec][Risk: ** Unidirectional Traffic **][Risk Score: 10][Risk Info: No server to client traffic][Plen Bins: 100,0,0,0,0,0,0,0,0,0,0,0,0,0,0,0,0,0,0,0,0,0,0,0,0,0,0,0,0,0,0,0,0,0,0,0,0,0,0,0,0,0,0,0,0,0,0,0]
	18	UDP 192.168.115.8:22793 -> 36.233.39.81:18590 [proto: 0/Unknown][ClearText][Confidence: Unknown][2 pkts/132 bytes -> 0 pkts/0 bytes][Goodput ratio: 36/0][0.00 sec][Risk: ** Unidirectional Traffic **][Risk Score: 10][Risk Info: No server to client traffic][Plen Bins: 100,0,0,0,0,0,0,0,0,0,0,0,0,0,0,0,0,0,0,0,0,0,0,0,0,0,0,0,0,0,0,0,0,0,0,0,0,0,0,0,0,0,0,0,0,0,0,0]
	19	UDP 192.168.115.8:22793 -> 36.237.154.69:4316 [proto: 0/Unknown][ClearText][Confidence: Unknown][2 pkts/132 bytes -> 0 pkts/0 bytes][Goodput ratio: 36/0][0.00 sec][Risk: ** Unidirectional Traffic **][Risk Score: 10][Risk Info: No server to client traffic][Plen Bins: 100,0,0,0,0,0,0,0,0,0,0,0,0,0,0,0,0,0,0,0,0,0,0,0,0,0,0,0,0,0,0,0,0,0,0,0,0,0,0,0,0,0,0,0,0,0,0,0]
	20	UDP 192.168.115.8:22793 -> 61.223.204.67:11102 [proto: 0/Unknown][ClearText][Confidence: Unknown][2 pkts/132 bytes -> 0 pkts/0 bytes][Goodput ratio: 36/0][< 1 sec][Risk: ** Unidirectional Traffic **][Risk Score: 10][Risk Info: No server to client traffic][Plen Bins: 100,0,0,0,0,0,0,0,0,0,0,0,0,0,0,0,0,0,0,0,0,0,0,0,0,0,0,0,0,0,0,0,0,0,0,0,0,0,0,0,0,0,0,0,0,0,0,0]
	21	UDP 192.168.115.8:22793 -> 61.227.170.88:20227 [proto: 0/Unknown][ClearText][Confidence: Unknown][2 pkts/132 bytes -> 0 pkts/0 bytes][Goodput ratio: 36/0][< 1 sec][Risk: ** Unidirectional Traffic **][Risk Score: 10][Risk Info: No server to client traffic][Plen Bins: 100,0,0,0,0,0,0,0,0,0,0,0,0,0,0,0,0,0,0,0,0,0,0,0,0,0,0,0,0,0,0,0,0,0,0,0,0,0,0,0,0,0,0,0,0,0,0,0]
	22	UDP 192.168.115.8:22793 -> 111.117.101.81:10162 [proto: 0/Unknown][ClearText][Confidence: Unknown][2 pkts/132 bytes -> 0 pkts/0 bytes][Goodput ratio: 36/0][< 1 sec][Risk: ** Unidirectional Traffic **][Risk Score: 10][Risk Info: No server to client traffic][Plen Bins: 100,0,0,0,0,0,0,0,0,0,0,0,0,0,0,0,0,0,0,0,0,0,0,0,0,0,0,0,0,0,0,0,0,0,0,0,0,0,0,0,0,0,0,0,0,0,0,0]
	23	UDP 192.168.115.8:22793 -> 111.250.102.66:1107 [proto: 0/Unknown][ClearText][Confidence: Unknown][2 pkts/132 bytes -> 0 pkts/0 bytes][Goodput ratio: 36/0][< 1 sec][Risk: ** Unidirectional Traffic **][Risk Score: 10][Risk Info: No server to client traffic][Plen Bins: 100,0,0,0,0,0,0,0,0,0,0,0,0,0,0,0,0,0,0,0,0,0,0,0,0,0,0,0,0,0,0,0,0,0,0,0,0,0,0,0,0,0,0,0,0,0,0,0]
	24	UDP 192.168.115.8:22793 -> 114.37.142.173:1074 [proto: 0/Unknown][ClearText][Confidence: Unknown][2 pkts/132 bytes -> 0 pkts/0 bytes][Goodput ratio: 36/0][0.00 sec][Risk: ** Unidirectional Traffic **][Risk Score: 10][Risk Info: No server to client traffic][Plen Bins: 100,0,0,0,0,0,0,0,0,0,0,0,0,0,0,0,0,0,0,0,0,0,0,0,0,0,0,0,0,0,0,0,0,0,0,0,0,0,0,0,0,0,0,0,0,0,0,0]
	25	UDP 192.168.115.8:22793 -> 114.47.91.129:22576 [proto: 0/Unknown][ClearText][Confidence: Unknown][2 pkts/132 bytes -> 0 pkts/0 bytes][Goodput ratio: 36/0][< 1 sec][Risk: ** Unidirectional Traffic **][Risk Score: 10][Risk Info: No server to client traffic][Plen Bins: 100,0,0,0,0,0,0,0,0,0,0,0,0,0,0,0,0,0,0,0,0,0,0,0,0,0,0,0,0,0,0,0,0,0,0,0,0,0,0,0,0,0,0,0,0,0,0,0]
	26	UDP 192.168.115.8:22793 -> 115.157.62.243:29006 [proto: 0/Unknown][ClearText][Confidence: Unknown][2 pkts/132 bytes -> 0 pkts/0 bytes][Goodput ratio: 36/0][< 1 sec][Risk: ** Unidirectional Traffic **][Risk Score: 10][Risk Info: No client to server traffic][Plen Bins: 100,0,0,0,0,0,0,0,0,0,0,0,0,0,0,0,0,0,0,0,0,0,0,0,0,0,0,0,0,0,0,0,0,0,0,0,0,0,0,0,0,0,0,0,0,0,0,0]
	27	UDP 192.168.115.8:22793 -> 121.248.133.93:12757 [proto: 0/Unknown][ClearText][Confidence: Unknown][2 pkts/132 bytes -> 0 pkts/0 bytes][Goodput ratio: 36/0][< 1 sec][Risk: ** Unidirectional Traffic **][Risk Score: 10][Risk Info: No server to client traffic][Plen Bins: 100,0,0,0,0,0,0,0,0,0,0,0,0,0,0,0,0,0,0,0,0,0,0,0,0,0,0,0,0,0,0,0,0,0,0,0,0,0,0,0,0,0,0,0,0,0,0,0]
	28	UDP 192.168.115.8:22793 -> 202.112.31.89:29072 [proto: 0/Unknown][ClearText][Confidence: Unknown][2 pkts/132 bytes -> 0 pkts/0 bytes][Goodput ratio: 36/0][< 1 sec][Risk: ** Unidirectional Traffic **][Risk Score: 10][Risk Info: No client to server traffic][Plen Bins: 100,0,0,0,0,0,0,0,0,0,0,0,0,0,0,0,0,0,0,0,0,0,0,0,0,0,0,0,0,0,0,0,0,0,0,0,0,0,0,0,0,0,0,0,0,0,0,0]
	29	UDP 192.168.115.8:22793 -> 210.44.171.1:29702 [proto: 0/Unknown][ClearText][Confidence: Unknown][2 pkts/132 bytes -> 0 pkts/0 bytes][Goodput ratio: 36/0][< 1 sec][Risk: ** Unidirectional Traffic **][Risk Score: 10][Risk Info: No client to server traffic][Plen Bins: 100,0,0,0,0,0,0,0,0,0,0,0,0,0,0,0,0,0,0,0,0,0,0,0,0,0,0,0,0,0,0,0,0,0,0,0,0,0,0,0,0,0,0,0,0,0,0,0]
	30	UDP 192.168.115.8:22793 -> 210.44.232.243:21044 [proto: 0/Unknown][ClearText][Confidence: Unknown][2 pkts/132 bytes -> 0 pkts/0 bytes][Goodput ratio: 36/0][< 1 sec][Risk: ** Unidirectional Traffic **][Risk Score: 10][Risk Info: No server to client traffic][Plen Bins: 100,0,0,0,0,0,0,0,0,0,0,0,0,0,0,0,0,0,0,0,0,0,0,0,0,0,0,0,0,0,0,0,0,0,0,0,0,0,0,0,0,0,0,0,0,0,0,0]
	31	UDP 192.168.115.8:22793 -> 210.47.12.19:33738 [proto: 0/Unknown][ClearText][Confidence: Unknown][2 pkts/132 bytes -> 0 pkts/0 bytes][Goodput ratio: 36/0][< 1 sec][Risk: ** Unidirectional Traffic **][Risk Score: 10][Risk Info: No client to server traffic][Plen Bins: 100,0,0,0,0,0,0,0,0,0,0,0,0,0,0,0,0,0,0,0,0,0,0,0,0,0,0,0,0,0,0,0,0,0,0,0,0,0,0,0,0,0,0,0,0,0,0,0]
	32	UDP 192.168.115.8:22793 -> 210.47.12.20:33738 [proto: 0/Unknown][ClearText][Confidence: Unknown][2 pkts/132 bytes -> 0 pkts/0 bytes][Goodput ratio: 36/0][< 1 sec][Risk: ** Unidirectional Traffic **][Risk Score: 10][Risk Info: No client to server traffic][Plen Bins: 100,0,0,0,0,0,0,0,0,0,0,0,0,0,0,0,0,0,0,0,0,0,0,0,0,0,0,0,0,0,0,0,0,0,0,0,0,0,0,0,0,0,0,0,0,0,0,0]
	33	UDP 192.168.115.8:22793 -> 222.26.74.190:1037 [proto: 0/Unknown][ClearText][Confidence: Unknown][2 pkts/132 bytes -> 0 pkts/0 bytes][Goodput ratio: 36/0][< 1 sec][Risk: ** Unidirectional Traffic **][Risk Score: 10][Risk Info: No server to client traffic][Plen Bins: 100,0,0,0,0,0,0,0,0,0,0,0,0,0,0,0,0,0,0,0,0,0,0,0,0,0,0,0,0,0,0,0,0,0,0,0,0,0,0,0,0,0,0,0,0,0,0,0]
	34	UDP 192.168.115.8:22793 -> 222.26.193.119:7133 [proto: 0/Unknown][ClearText][Confidence: Unknown][2 pkts/132 bytes -> 0 pkts/0 bytes][Goodput ratio: 36/0][< 1 sec][Risk: ** Unidirectional Traffic **][Risk Score: 10][Risk Info: No server to client traffic][Plen Bins: 100,0,0,0,0,0,0,0,0,0,0,0,0,0,0,0,0,0,0,0,0,0,0,0,0,0,0,0,0,0,0,0,0,0,0,0,0,0,0,0,0,0,0,0,0,0,0,0]
