Guessed flow protos:	23

DPI Packets (TCP):	793	(18.88 pkts/flow)
DPI Packets (UDP):	87	(2.17 pkts/flow)
DPI Packets (other):	1	(1.00 pkts/flow)
Confidence Unknown          : 1 (flows)
Confidence Match by IP      : 1 (flows)
Confidence DPI (partial)    : 1 (flows)
Confidence DPI              : 80 (flows)

Unknown	4	456	1
DNS	10	1357	5
DHCP	7	2323	2
ntop	40	9816	3
Skype_TeamsCall	49	10800	4
ICMP	2	140	1
TLS	4	1366	1
Dropbox	18	11162	3
Skype_Teams	44	21248	3
Spotify	1	82	1
Telegram	3	186	1
Microsoft	405	284048	12
Microsoft365	136	52120	6
Teams	1916	1034899	34
Azure	136	57684	6

JA3 Host Stats: 
		 IP Address                  	 # JA3C     
	1	 192.168.1.6              	 6      


	1	TCP 192.168.1.6:60536 <-> 52.113.194.132:443 [proto: 91.250/TLS.Teams][Encrypted][Confidence: DPI][cat: Collaborative/15][614 pkts/242051 bytes <-> 686 pkts/579301 bytes][Goodput ratio: 86/93][19.89 sec][Hostname/SNI: teams.microsoft.com][ALPN: h2;http/1.1][bytes ratio: -0.411 (Download)][IAT c2s/s2c min/avg/max/stddev: 0/0 38/23 3909/3921 278/223][Pkt Len c2s/s2c min/avg/max/stddev: 54/60 394/844 1494/1506 582/685][TLSv1.2][JA3C: 74d5fa154a7fc0a7c655d8eaa34b89bf][ServerNames: teams.microsoft.com][JA3S: 0f14538e1c9070becdad7739c67d6363][Issuer: C=US, ST=Washington, L=Redmond, O=Microsoft Corporation, OU=Microsoft IT, CN=Microsoft IT TLS CA 4][Subject: CN=teams.microsoft.com][Certificate SHA-1: 68:1E:E8:3C:83:70:6F:E3:86:F4:E8:8C:C4:E6:A0:9A:3E:E0:9C:0E][Validity: 2019-09-12 18:16:45 - 2021-09-12 18:16:45][Cipher: TLS_ECDHE_RSA_WITH_AES_256_GCM_SHA384][Plen Bins: 0,1,2,0,0,0,2,0,0,0,0,0,0,0,0,0,0,0,0,0,0,0,0,0,0,0,0,0,0,0,0,2,0,0,0,0,1,0,0,0,0,0,0,0,0,91,0,0]
	2	TCP 192.168.1.6:60543 <-> 52.114.77.33:443 [proto: 91.212/TLS.Microsoft][Encrypted][Confidence: DPI][cat: Cloud/13][67 pkts/86089 bytes <-> 40 pkts/7347 bytes][Goodput ratio: 95/64][0.72 sec][Hostname/SNI: mobile.pipe.aria.microsoft.com][bytes ratio: 0.843 (Upload)][IAT c2s/s2c min/avg/max/stddev: 0/0 8/16 152/86 28/26][Pkt Len c2s/s2c min/avg/max/stddev: 66/66 1285/184 1494/1506 497/372][Risk: ** TLS (probably) Not Carrying HTTPS **][Risk Score: 10][Risk Info: No ALPN][TLSv1.2][JA3C: a1674500365bdd882188db63730e69a2][ServerNames: *.events.data.microsoft.com,events.data.microsoft.com,*.pipe.aria.microsoft.com,pipe.skype.com,*.pipe.skype.com,*.mobile.events.data.microsoft.com,mobile.events.data.microsoft.com,*.events.data.msn.com,events.data.msn.com][JA3S: ae4edc6faf64d08308082ad26be60767][Issuer: C=US, ST=Washington, L=Redmond, O=Microsoft Corporation, OU=Microsoft IT, CN=Microsoft IT TLS CA 4][Subject: CN=*.events.data.microsoft.com][Certificate SHA-1: 33:B3:B7:E9:DA:25:F5:A0:04:E9:63:87:B6:FB:54:77:DB:ED:27:EB][Safari][Validity: 2019-10-10 21:55:38 - 2021-10-10 21:55:38][Cipher: TLS_ECDHE_RSA_WITH_AES_256_GCM_SHA384][Plen Bins: 1,1,1,0,0,0,1,0,0,0,0,0,0,1,0,0,0,0,0,0,0,0,0,0,0,0,0,0,0,0,0,0,0,0,0,0,0,0,0,0,0,1,1,0,89,3,0,0]
	3	TCP 192.168.1.6:60532 <-> 52.114.77.33:443 [proto: 91.212/TLS.Microsoft][Encrypted][Confidence: DPI][cat: Cloud/13][49 pkts/58592 bytes <-> 28 pkts/6555 bytes][Goodput ratio: 94/72][0.71 sec][Hostname/SNI: mobile.pipe.aria.microsoft.com][bytes ratio: 0.799 (Upload)][IAT c2s/s2c min/avg/max/stddev: 0/0 13/29 177/221 32/57][Pkt Len c2s/s2c min/avg/max/stddev: 66/66 1196/234 1494/1506 564/435][Risk: ** TLS (probably) Not Carrying HTTPS **][Risk Score: 10][Risk Info: No ALPN][TLSv1.2][JA3C: a1674500365bdd882188db63730e69a2][ServerNames: *.events.data.microsoft.com,events.data.microsoft.com,*.pipe.aria.microsoft.com,pipe.skype.com,*.pipe.skype.com,*.mobile.events.data.microsoft.com,mobile.events.data.microsoft.com,*.events.data.msn.com,events.data.msn.com][JA3S: ae4edc6faf64d08308082ad26be60767][Issuer: C=US, ST=Washington, L=Redmond, O=Microsoft Corporation, OU=Microsoft IT, CN=Microsoft IT TLS CA 4][Subject: CN=*.events.data.microsoft.com][Certificate SHA-1: 33:B3:B7:E9:DA:25:F5:A0:04:E9:63:87:B6:FB:54:77:DB:ED:27:EB][Safari][Validity: 2019-10-10 21:55:38 - 2021-10-10 21:55:38][Cipher: TLS_ECDHE_RSA_WITH_AES_256_GCM_SHA384][Plen Bins: 2,2,2,0,0,2,0,0,0,0,0,0,0,2,0,0,0,0,0,0,0,0,0,0,2,0,0,0,0,0,0,0,0,0,0,0,0,0,0,0,0,2,0,0,81,4,0,0]
	4	TCP 192.168.1.6:60554 <-> 52.113.194.132:443 [proto: 91.250/TLS.Teams][Encrypted][Confidence: DPI][cat: Collaborative/15][24 pkts/2746 bytes <-> 28 pkts/30546 bytes][Goodput ratio: 52/95][0.23 sec][Hostname/SNI: config.teams.microsoft.com][bytes ratio: -0.835 (Download)][IAT c2s/s2c min/avg/max/stddev: 0/0 4/9 21/140 7/29][Pkt Len c2s/s2c min/avg/max/stddev: 54/60 114/1091 1136/1506 217/607][Risk: ** TLS (probably) Not Carrying HTTPS **][Risk Score: 10][Risk Info: No ALPN][TLSv1.2][JA3C: e4d448cdfe06dc1243c1eb026c74ac9a][ServerNames: *.config.teams.microsoft.com,config.teams.microsoft.com][JA3S: 7d8fd34fdb13a7fff30d5a52846b6c4c][Issuer: C=US, ST=Washington, L=Redmond, O=Microsoft Corporation, OU=Microsoft IT, CN=Microsoft IT TLS CA 1][Subject: CN=config.teams.microsoft.com][Certificate SHA-1: B9:54:54:12:C9:E9:43:65:10:70:04:7B:AD:B6:0C:46:06:38:A5:FA][Firefox][Validity: 2019-12-11 02:04:20 - 2021-12-11 02:04:20][Cipher: TLS_ECDHE_RSA_WITH_AES_256_GCM_SHA384][Plen Bins: 0,7,0,3,3,3,0,0,0,0,0,0,0,0,0,0,0,0,0,3,0,0,0,0,0,0,0,0,0,0,3,0,0,3,0,0,0,0,0,7,0,0,0,0,0,65,0,0]
	5	TCP 192.168.1.6:60561 <-> 52.114.77.33:443 [proto: 91.212/TLS.Microsoft][Encrypted][Confidence: DPI][cat: Cloud/13][23 pkts/19184 bytes <-> 14 pkts/5643 bytes][Goodput ratio: 92/83][0.82 sec][Hostname/SNI: mobile.pipe.aria.microsoft.com][bytes ratio: 0.545 (Upload)][IAT c2s/s2c min/avg/max/stddev: 0/0 25/44 161/136 43/48][Pkt Len c2s/s2c min/avg/max/stddev: 66/66 834/403 1494/1506 690/567][Risk: ** TLS (probably) Not Carrying HTTPS **][Risk Score: 10][Risk Info: No ALPN][TLSv1.2][JA3C: a1674500365bdd882188db63730e69a2][ServerNames: *.events.data.microsoft.com,events.data.microsoft.com,*.pipe.aria.microsoft.com,pipe.skype.com,*.pipe.skype.com,*.mobile.events.data.microsoft.com,mobile.events.data.microsoft.com,*.events.data.msn.com,events.data.msn.com][JA3S: ae4edc6faf64d08308082ad26be60767][Issuer: C=US, ST=Washington, L=Redmond, O=Microsoft Corporation, OU=Microsoft IT, CN=Microsoft IT TLS CA 4][Subject: CN=*.events.data.microsoft.com][Certificate SHA-1: 33:B3:B7:E9:DA:25:F5:A0:04:E9:63:87:B6:FB:54:77:DB:ED:27:EB][Safari][Validity: 2019-10-10 21:55:38 - 2021-10-10 21:55:38][Cipher: TLS_ECDHE_RSA_WITH_AES_256_GCM_SHA384][Plen Bins: 4,4,4,0,0,0,9,0,0,0,0,0,0,4,0,0,0,0,0,0,0,0,0,0,0,0,0,0,0,0,0,0,0,0,0,0,0,0,0,0,0,4,0,0,60,9,0,0]
	6	TCP 192.168.1.6:60535 <-> 52.114.77.33:443 [proto: 91.212/TLS.Microsoft][Encrypted][Confidence: DPI][cat: Cloud/13][21 pkts/16793 bytes <-> 13 pkts/5565 bytes][Goodput ratio: 92/84][0.33 sec][Hostname/SNI: mobile.pipe.aria.microsoft.com][bytes ratio: 0.502 (Upload)][IAT c2s/s2c min/avg/max/stddev: 0/0 9/18 48/49 17/20][Pkt Len c2s/s2c min/avg/max/stddev: 66/66 800/428 1494/1506 681/581][Risk: ** TLS (probably) Not Carrying HTTPS **][Risk Score: 10][Risk Info: No ALPN][TLSv1.2][JA3C: a1674500365bdd882188db63730e69a2][ServerNames: *.events.data.microsoft.com,events.data.microsoft.com,*.pipe.aria.microsoft.com,pipe.skype.com,*.pipe.skype.com,*.mobile.events.data.microsoft.com,mobile.events.data.microsoft.com,*.events.data.msn.com,events.data.msn.com][JA3S: ae4edc6faf64d08308082ad26be60767][Issuer: C=US, ST=Washington, L=Redmond, O=Microsoft Corporation, OU=Microsoft IT, CN=Microsoft IT TLS CA 4][Subject: CN=*.events.data.microsoft.com][Certificate SHA-1: 33:B3:B7:E9:DA:25:F5:A0:04:E9:63:87:B6:FB:54:77:DB:ED:27:EB][Safari][Validity: 2019-10-10 21:55:38 - 2021-10-10 21:55:38][Cipher: TLS_ECDHE_RSA_WITH_AES_256_GCM_SHA384][Plen Bins: 5,5,5,0,0,0,5,0,0,0,0,0,0,5,0,0,0,0,0,0,0,0,0,0,5,0,0,0,0,0,0,0,0,0,0,0,0,0,0,0,0,5,0,0,53,10,0,0]
	7	TCP 192.168.1.6:60559 <-> 52.114.77.33:443 [proto: 91.212/TLS.Microsoft][Encrypted][Confidence: DPI][cat: Cloud/13][21 pkts/15525 bytes <-> 12 pkts/5499 bytes][Goodput ratio: 91/85][0.35 sec][Hostname/SNI: mobile.pipe.aria.microsoft.com][bytes ratio: 0.477 (Upload)][IAT c2s/s2c min/avg/max/stddev: 0/0 17/21 52/51 22/22][Pkt Len c2s/s2c min/avg/max/stddev: 66/66 739/458 1494/1506 682/595][Risk: ** TLS (probably) Not Carrying HTTPS **][Risk Score: 10][Risk Info: No ALPN][TLSv1.2][JA3C: a1674500365bdd882188db63730e69a2][Safari][Plen Bins: 5,5,5,0,0,0,5,0,0,0,0,0,0,5,0,0,0,0,0,0,0,0,0,0,0,0,0,0,0,5,0,0,0,0,0,0,0,0,0,0,0,5,0,0,52,11,0,0]
	8	TCP 192.168.1.6:60545 <-> 52.114.77.58:443 [proto: 91.250/TLS.Teams][Encrypted][Confidence: DPI][cat: Collaborative/15][49 pkts/7568 bytes <-> 34 pkts/11426 bytes][Goodput ratio: 65/83][9.23 sec][Hostname/SNI: presence.teams.microsoft.com][ALPN: h2;http/1.1][bytes ratio: -0.203 (Download)][IAT c2s/s2c min/avg/max/stddev: 0/0 226/294 4927/4971 803/983][Pkt Len c2s/s2c min/avg/max/stddev: 54/60 154/336 1494/1506 217/458][TLSv1.2][JA3C: ebf5e0e525258d7a8dcb54aa1564ecbd][Plen Bins: 0,21,17,10,8,6,4,0,6,2,0,0,2,6,2,0,0,0,0,0,0,2,0,0,0,0,0,0,0,0,0,0,0,0,0,0,0,0,0,0,0,0,0,0,0,10,0,0]
	9	TCP 192.168.1.6:60549 <-> 13.107.18.11:443 [proto: 91.219/TLS.Microsoft365][Encrypted][Confidence: DPI][cat: Collaborative/15][28 pkts/7696 bytes <-> 26 pkts/9797 bytes][Goodput ratio: 80/85][1.16 sec][Hostname/SNI: substrate.office.com][ALPN: h2;http/1.1][bytes ratio: -0.120 (Mixed)][IAT c2s/s2c min/avg/max/stddev: 0/0 47/23 539/167 115/43][Pkt Len c2s/s2c min/avg/max/stddev: 54/60 275/377 1494/1506 397/471][TLSv1.2][JA3C: ebf5e0e525258d7a8dcb54aa1564ecbd][ServerNames: outlook.office.com,attachment.outlook.office.net,attachment.outlook.officeppe.net,bookings.office.com,delve.office.com,edge.outlook.office365.com,edgesdf.outlook.com,img.delve.office.com,outlook.live.com,outlook-sdf.live.com,outlook-sdf.office.com,sdfedge-pilot.outlook.com,substrate.office.com,substrate-sdf.office.com,afd-k-acdc-direct.office.com,beta-sdf.yammer.com,teams-sdf.yammer.com,beta.yammer.com,teams.yammer.com,attachments.office.net,attachments-sdf.office.net,afd-k.office.com,afd-k-sdf.office.com][JA3S: a66ea560599a2f5c89eec8c3a0d69cee][Issuer: C=US, O=DigiCert Inc, CN=DigiCert Cloud Services CA-1][Subject: C=US, ST=Washington, L=Redmond, O=Microsoft Corporation, CN=Outlook.office.com][Certificate SHA-1: AA:D3:F5:66:06:48:AA:F8:8E:9B:79:D6:7F:1D:53:EA:3F:97:03:A2][Validity: 2019-07-12 00:00:00 - 2021-07-12 12:00:00][Cipher: TLS_ECDHE_RSA_WITH_AES_256_GCM_SHA384][Plen Bins: 0,22,7,0,7,0,7,0,0,3,3,0,0,0,3,0,7,0,3,0,10,3,3,0,0,0,0,0,0,0,0,0,0,0,0,0,0,0,0,0,0,0,0,0,0,18,0,0]
	10	TCP 192.168.1.6:60548 <-> 52.114.77.33:443 [proto: 91.212/TLS.Microsoft][Encrypted][Confidence: DPI][cat: Cloud/13][18 pkts/12047 bytes <-> 11 pkts/5433 bytes][Goodput ratio: 90/86][0.32 sec][Hostname/SNI: mobile.pipe.aria.microsoft.com][bytes ratio: 0.378 (Upload)][IAT c2s/s2c min/avg/max/stddev: 0/0 13/23 51/51 21/23][Pkt Len c2s/s2c min/avg/max/stddev: 66/66 669/494 1494/1506 669/609][Risk: ** TLS (probably) Not Carrying HTTPS **][Risk Score: 10][Risk Info: No ALPN][TLSv1.2][JA3C: a1674500365bdd882188db63730e69a2][ServerNames: *.events.data.microsoft.com,events.data.microsoft.com,*.pipe.aria.microsoft.com,pipe.skype.com,*.pipe.skype.com,*.mobile.events.data.microsoft.com,mobile.events.data.microsoft.com,*.events.data.msn.com,events.data.msn.com][JA3S: ae4edc6faf64d08308082ad26be60767][Issuer: C=US, ST=Washington, L=Redmond, O=Microsoft Corporation, OU=Microsoft IT, CN=Microsoft IT TLS CA 4][Subject: CN=*.events.data.microsoft.com][Certificate SHA-1: 33:B3:B7:E9:DA:25:F5:A0:04:E9:63:87:B6:FB:54:77:DB:ED:27:EB][Safari][Validity: 2019-10-10 21:55:38 - 2021-10-10 21:55:38][Cipher: TLS_ECDHE_RSA_WITH_AES_256_GCM_SHA384][Plen Bins: 6,6,6,0,0,0,6,0,0,0,0,0,0,6,0,0,6,0,0,0,0,0,0,0,0,0,0,0,0,0,0,0,0,0,0,0,0,0,0,0,0,6,0,0,44,12,0,0]
	11	TCP 192.168.1.6:60533 <-> 52.113.194.132:443 [proto: 91.250/TLS.Teams][Encrypted][Confidence: DPI][cat: Collaborative/15][20 pkts/1861 bytes <-> 20 pkts/12980 bytes][Goodput ratio: 41/91][0.10 sec][Hostname/SNI: teams.microsoft.com][ALPN: h2;http/1.1][bytes ratio: -0.749 (Download)][IAT c2s/s2c min/avg/max/stddev: 0/0 6/4 29/29 8/8][Pkt Len c2s/s2c min/avg/max/stddev: 54/60 93/649 312/1506 76/603][TLSv1.2][JA3C: ebf5e0e525258d7a8dcb54aa1564ecbd][ServerNames: teams.microsoft.com][JA3S: 0f14538e1c9070becdad7739c67d6363][Issuer: C=US, ST=Washington, L=Redmond, O=Microsoft Corporation, OU=Microsoft IT, CN=Microsoft IT TLS CA 4][Subject: CN=teams.microsoft.com][Certificate SHA-1: 68:1E:E8:3C:83:70:6F:E3:86:F4:E8:8C:C4:E6:A0:9A:3E:E0:9C:0E][Validity: 2019-09-12 18:16:45 - 2021-09-12 18:16:45][Cipher: TLS_ECDHE_RSA_WITH_AES_256_GCM_SHA384][Plen Bins: 0,15,10,0,5,0,10,0,5,0,5,0,0,0,0,0,5,0,0,10,0,5,0,0,0,0,0,0,0,0,0,0,0,0,0,0,0,0,0,0,0,0,0,0,0,30,0,0]
	12	TCP 192.168.1.6:60540 <-> 52.114.75.70:443 [proto: 91.250/TLS.Teams][Encrypted][Confidence: DPI][cat: Collaborative/15][14 pkts/5711 bytes <-> 10 pkts/8093 bytes][Goodput ratio: 83/92][0.13 sec][Hostname/SNI: eu-prod.asyncgw.teams.microsoft.com][ALPN: h2;http/1.1][bytes ratio: -0.173 (Mixed)][IAT c2s/s2c min/avg/max/stddev: 0/0 8/9 32/32 13/14][Pkt Len c2s/s2c min/avg/max/stddev: 66/66 408/809 1494/1506 517/688][TLSv1.2][JA3C: 74d5fa154a7fc0a7c655d8eaa34b89bf][Plen Bins: 0,7,0,7,0,0,0,15,0,0,0,0,0,0,0,0,0,0,0,0,0,7,0,0,0,0,0,7,0,0,0,0,0,0,0,0,0,0,0,0,0,0,0,7,15,31,0,0]
	13	TCP 192.168.1.6:60537 <-> 52.114.77.33:443 [proto: 91.212/TLS.Microsoft][Encrypted][Confidence: DPI][cat: Cloud/13][16 pkts/8418 bytes <-> 10 pkts/5367 bytes][Goodput ratio: 87/88][0.27 sec][Hostname/SNI: mobile.pipe.aria.microsoft.com][bytes ratio: 0.221 (Upload)][IAT c2s/s2c min/avg/max/stddev: 0/0 14/27 46/46 20/20][Pkt Len c2s/s2c min/avg/max/stddev: 66/66 526/537 1494/1506 639/623][Risk: ** TLS (probably) Not Carrying HTTPS **][Risk Score: 10][Risk Info: No ALPN][TLSv1.2][JA3C: a1674500365bdd882188db63730e69a2][ServerNames: *.events.data.microsoft.com,events.data.microsoft.com,*.pipe.aria.microsoft.com,pipe.skype.com,*.pipe.skype.com,*.mobile.events.data.microsoft.com,mobile.events.data.microsoft.com,*.events.data.msn.com,events.data.msn.com][JA3S: ae4edc6faf64d08308082ad26be60767][Issuer: C=US, ST=Washington, L=Redmond, O=Microsoft Corporation, OU=Microsoft IT, CN=Microsoft IT TLS CA 4][Subject: CN=*.events.data.microsoft.com][Certificate SHA-1: 33:B3:B7:E9:DA:25:F5:A0:04:E9:63:87:B6:FB:54:77:DB:ED:27:EB][Safari][Validity: 2019-10-10 21:55:38 - 2021-10-10 21:55:38][Cipher: TLS_ECDHE_RSA_WITH_AES_256_GCM_SHA384][Plen Bins: 7,7,7,0,0,0,7,0,0,0,0,0,0,7,0,0,0,0,0,0,0,0,0,0,0,0,0,0,0,0,0,0,0,0,0,0,0,0,0,0,7,7,0,0,31,15,0,0]
	14	TCP 192.168.1.6:60555 <-> 52.114.77.33:443 [proto: 91.212/TLS.Microsoft][Encrypted][Confidence: DPI][cat: Cloud/13][18 pkts/5861 bytes <-> 13 pkts/7901 bytes][Goodput ratio: 80/89][2.79 sec][Hostname/SNI: mobile.pipe.aria.microsoft.com][bytes ratio: -0.148 (Mixed)][IAT c2s/s2c min/avg/max/stddev: 0/0 192/269 2443/2490 625/741][Pkt Len c2s/s2c min/avg/max/stddev: 66/66 326/608 1494/1506 448/617][Risk: ** TLS (probably) Not Carrying HTTPS **][Risk Score: 10][Risk Info: No ALPN][TLSv1.2][JA3C: e4d448cdfe06dc1243c1eb026c74ac9a][ServerNames: *.events.data.microsoft.com,events.data.microsoft.com,*.pipe.aria.microsoft.com,pipe.skype.com,*.pipe.skype.com,*.mobile.events.data.microsoft.com,mobile.events.data.microsoft.com,*.events.data.msn.com,events.data.msn.com][JA3S: 986571066668055ae9481cb84fda634a][Issuer: C=US, ST=Washington, L=Redmond, O=Microsoft Corporation, OU=Microsoft IT, CN=Microsoft IT TLS CA 4][Subject: CN=*.events.data.microsoft.com][Certificate SHA-1: 33:B3:B7:E9:DA:25:F5:A0:04:E9:63:87:B6:FB:54:77:DB:ED:27:EB][Firefox][Validity: 2019-10-10 21:55:38 - 2021-10-10 21:55:38][Cipher: TLS_ECDHE_RSA_WITH_AES_256_GCM_SHA384][Plen Bins: 0,16,11,0,0,5,0,0,0,5,5,0,0,11,0,5,0,0,5,0,0,0,0,0,0,0,0,0,0,0,0,0,0,0,0,0,0,0,0,0,0,0,0,0,11,22,0,0]
	15	UDP 192.168.1.6:51681 <-> 52.114.77.136:3478 [proto: 78.276/STUN.Azure][ClearText][Confidence: DPI (partial)][cat: Cloud/13][14 pkts/5838 bytes <-> 17 pkts/7907 bytes][Goodput ratio: 90/91][4.57 sec][bytes ratio: -0.151 (Mixed)][IAT c2s/s2c min/avg/max/stddev: 0/0 347/256 2336/2336 693/595][Pkt Len c2s/s2c min/avg/max/stddev: 79/79 417/465 1243/1227 434/401][PLAIN TEXT (TBHSWF)][Plen Bins: 0,36,0,0,0,12,6,0,3,6,0,0,0,3,0,0,0,0,0,0,0,0,0,6,6,0,0,0,0,0,3,0,3,3,0,0,0,9,0,0,0,0,0,0,0,0,0,0]
	16	TCP 192.168.1.6:60547 <-> 52.114.88.59:443 [proto: 91.250/TLS.Teams][Encrypted][Confidence: DPI][cat: Collaborative/15][20 pkts/3926 bytes <-> 15 pkts/8828 bytes][Goodput ratio: 66/89][0.32 sec][Hostname/SNI: chatsvcagg.teams.microsoft.com][ALPN: h2;http/1.1][bytes ratio: -0.384 (Download)][IAT c2s/s2c min/avg/max/stddev: 0/0 13/25 91/80 23/31][Pkt Len c2s/s2c min/avg/max/stddev: 66/66 196/589 1494/1506 320/612][TLSv1.2][JA3C: ebf5e0e525258d7a8dcb54aa1564ecbd][Plen Bins: 0,21,10,5,0,5,10,5,0,0,0,5,0,0,0,5,0,0,0,0,0,0,0,0,0,0,0,0,0,0,0,0,0,5,0,0,0,0,0,0,0,0,0,0,5,21,0,0]
	17	TCP 192.168.1.6:60565 <-> 52.114.108.8:443 [proto: 91.250/TLS.Teams][Encrypted][Confidence: DPI][cat: Collaborative/15][19 pkts/3306 bytes <-> 14 pkts/9053 bytes][Goodput ratio: 61/90][0.43 sec][Hostname/SNI: emea.ng.msg.teams.microsoft.com][ALPN: h2;http/1.1][bytes ratio: -0.465 (Download)][IAT c2s/s2c min/avg/max/stddev: 0/0 27/12 276/54 68/17][Pkt Len c2s/s2c min/avg/max/stddev: 66/66 174/647 1060/1506 238/633][TLSv1.2][JA3C: ebf5e0e525258d7a8dcb54aa1564ecbd][Plen Bins: 0,22,16,5,0,0,5,0,0,0,0,0,0,5,11,0,0,0,0,0,0,0,0,0,0,0,0,0,0,0,0,5,0,0,0,0,0,0,0,0,5,0,0,0,0,22,0,0]
	18	TCP 192.168.1.6:60541 <-> 52.114.75.69:443 [proto: 91.125/TLS.Skype_Teams][Encrypted][Confidence: DPI][cat: VoIP/10][13 pkts/4051 bytes <-> 9 pkts/7973 bytes][Goodput ratio: 79/92][0.14 sec][Hostname/SNI: eu-api.asm.skype.com][ALPN: h2;http/1.1][bytes ratio: -0.326 (Download)][IAT c2s/s2c min/avg/max/stddev: 0/0 10/11 31/36 14/16][Pkt Len c2s/s2c min/avg/max/stddev: 66/66 312/886 1494/1506 422/676][TLSv1.2][JA3C: 74d5fa154a7fc0a7c655d8eaa34b89bf][ServerNames: *.asm.skype.com][JA3S: 986571066668055ae9481cb84fda634a][Issuer: C=US, ST=Washington, L=Redmond, O=Microsoft Corporation, OU=Microsoft IT, CN=Microsoft IT TLS CA 1][Subject: CN=*.asm.skype.com][Certificate SHA-1: B9:41:1D:AE:56:09:68:D2:07:D0:69:E1:68:00:08:2B:EF:63:1E:48][Validity: 2019-05-07 12:50:03 - 2021-05-07 12:50:03][Cipher: TLS_ECDHE_RSA_WITH_AES_256_GCM_SHA384][Plen Bins: 0,8,0,8,0,0,16,0,0,0,0,0,0,0,0,0,0,0,0,0,0,8,0,8,0,0,0,0,0,0,0,0,0,0,0,0,0,0,0,0,0,0,8,0,8,34,0,0]
	19	TCP 192.168.1.6:60556 <-> 40.126.9.7:443 [proto: 91.219/TLS.Microsoft365][Encrypted][Confidence: DPI][cat: Collaborative/15][15 pkts/4178 bytes <-> 12 pkts/7795 bytes][Goodput ratio: 76/90][0.43 sec][Hostname/SNI: login.microsoftonline.com][ALPN: h2;h2-16;h2-15;h2-14;spdy/3.1;spdy/3;http/1.1][bytes ratio: -0.302 (Download)][IAT c2s/s2c min/avg/max/stddev: 0/0 19/45 105/135 29/49][Pkt Len c2s/s2c min/avg/max/stddev: 66/66 279/650 1494/1506 415/671][TLSv1.2][JA3C: a69708a64f853c3bcc214c2c5faf84f3][Safari][Plen Bins: 7,7,0,15,0,0,0,7,0,7,0,0,0,0,0,0,0,0,0,0,0,0,0,0,0,0,0,0,0,0,0,0,7,0,7,0,0,0,0,0,0,0,0,0,7,31,0,0]
	20	TCP 192.168.1.6:60560 <-> 40.126.9.67:443 [proto: 91.219/TLS.Microsoft365][Encrypted][Confidence: DPI][cat: Collaborative/15][14 pkts/4099 bytes <-> 12 pkts/7812 bytes][Goodput ratio: 77/90][0.36 sec][Hostname/SNI: login.microsoftonline.com][ALPN: h2;h2-16;h2-15;h2-14;spdy/3.1;spdy/3;http/1.1][bytes ratio: -0.312 (Download)][IAT c2s/s2c min/avg/max/stddev: 0/0 20/20 107/54 31/21][Pkt Len c2s/s2c min/avg/max/stddev: 66/66 293/651 1494/1506 427/672][TLSv1.2][JA3C: a69708a64f853c3bcc214c2c5faf84f3][ServerNames: login.microsoftonline.com,login.microsoftonline-p.com,loginex.microsoftonline.com,login2.microsoftonline.com,stamp2.login.microsoftonline-int.com,login.microsoftonline-int.com,loginex.microsoftonline-int.com,login2.microsoftonline-int.com,stamp2.login.microsoftonline.com][JA3S: 678aeaf909676262acfb913ccb78a126][Issuer: C=US, ST=Washington, L=Redmond, O=Microsoft Corporation, OU=Microsoft IT, CN=Microsoft IT TLS CA 1][Subject: CN=stamp2.login.microsoftonline.com][Certificate SHA-1: 7E:0F:A2:51:8F:FB:49:30:C3:34:07:5E:F8:7C:FD:34:20:A2:96:63][Safari][Validity: 2018-09-24 21:49:30 - 2020-09-24 21:49:30][Cipher: TLS_ECDHE_RSA_WITH_AES_256_GCM_SHA384][Plen Bins: 7,7,0,15,0,0,0,7,0,7,0,0,0,0,0,0,0,0,0,0,0,0,0,0,0,0,0,0,0,0,0,0,7,0,7,0,0,0,0,0,0,0,0,0,7,31,0,0]
	21	TCP 192.168.1.6:60544 <-> 52.114.76.48:443 [proto: 91.250/TLS.Teams][Encrypted][Confidence: DPI][cat: Collaborative/15][21 pkts/3510 bytes <-> 17 pkts/8350 bytes][Goodput ratio: 67/89][9.73 sec][Hostname/SNI: northeurope.notifications.teams.microsoft.com][ALPN: h2;http/1.1][bytes ratio: -0.408 (Download)][IAT c2s/s2c min/avg/max/stddev: 0/0 34/743 403/8978 94/2380][Pkt Len c2s/s2c min/avg/max/stddev: 54/60 167/491 1114/1506 247/578][TLSv1.2][JA3C: ebf5e0e525258d7a8dcb54aa1564ecbd][Plen Bins: 0,21,10,0,5,0,0,10,5,0,0,15,0,0,0,0,5,0,0,0,0,0,0,0,0,0,0,0,0,0,0,0,0,5,0,0,0,0,0,0,0,0,0,0,0,21,0,0]
	22	TCP 192.168.1.6:60562 <-> 104.40.187.151:443 [proto: 91.276/TLS.Azure][Encrypted][Confidence: DPI][cat: Cloud/13][19 pkts/3484 bytes <-> 13 pkts/8009 bytes][Goodput ratio: 63/89][0.29 sec][Hostname/SNI: api.microsoftstream.com][ALPN: h2;http/1.1][bytes ratio: -0.394 (Download)][IAT c2s/s2c min/avg/max/stddev: 0/0 11/12 45/45 15/17][Pkt Len c2s/s2c min/avg/max/stddev: 66/66 183/616 1379/1506 297/613][TLSv1.2][JA3C: ebf5e0e525258d7a8dcb54aa1564ecbd][Plen Bins: 0,22,22,0,0,0,5,5,0,0,0,5,0,0,5,5,0,0,0,0,0,0,0,0,0,0,0,0,0,0,0,0,0,0,0,0,0,0,0,0,0,5,0,0,0,22,0,0]
	23	TCP 192.168.1.6:60563 <-> 52.169.186.119:443 [proto: 91.276/TLS.Azure][Encrypted][Confidence: DPI][cat: Cloud/13][17 pkts/3244 bytes <-> 12 pkts/8152 bytes][Goodput ratio: 65/90][0.22 sec][Hostname/SNI: euno-1.api.microsoftstream.com][ALPN: h2;http/1.1][bytes ratio: -0.431 (Download)][IAT c2s/s2c min/avg/max/stddev: 0/0 15/13 69/48 22/20][Pkt Len c2s/s2c min/avg/max/stddev: 66/66 191/679 1352/1506 306/618][TLSv1.2][JA3C: ebf5e0e525258d7a8dcb54aa1564ecbd][Plen Bins: 0,18,18,0,0,0,6,6,0,0,0,6,0,0,0,6,0,0,0,0,0,0,6,0,0,0,0,0,0,0,0,0,0,0,0,0,0,0,0,0,6,0,0,0,0,25,0,0]
	24	TCP 192.168.1.6:60552 <-> 52.114.77.33:443 [proto: 91.212/TLS.Microsoft][Encrypted][Confidence: DPI][cat: Cloud/13][14 pkts/5842 bytes <-> 11 pkts/5445 bytes][Goodput ratio: 84/86][0.66 sec][Hostname/SNI: mobile.pipe.aria.microsoft.com][bytes ratio: 0.035 (Mixed)][IAT c2s/s2c min/avg/max/stddev: 0/0 22/71 143/237 42/77][Pkt Len c2s/s2c min/avg/max/stddev: 66/66 417/495 1494/1506 527/609][Risk: ** TLS (probably) Not Carrying HTTPS **][Risk Score: 10][Risk Info: No ALPN][TLSv1.2][JA3C: a1674500365bdd882188db63730e69a2][ServerNames: *.events.data.microsoft.com,events.data.microsoft.com,*.pipe.aria.microsoft.com,pipe.skype.com,*.pipe.skype.com,*.mobile.events.data.microsoft.com,mobile.events.data.microsoft.com,*.events.data.msn.com,events.data.msn.com][JA3S: ae4edc6faf64d08308082ad26be60767][Issuer: C=US, ST=Washington, L=Redmond, O=Microsoft Corporation, OU=Microsoft IT, CN=Microsoft IT TLS CA 4][Subject: CN=*.events.data.microsoft.com][Certificate SHA-1: 33:B3:B7:E9:DA:25:F5:A0:04:E9:63:87:B6:FB:54:77:DB:ED:27:EB][Safari][Validity: 2019-10-10 21:55:38 - 2021-10-10 21:55:38][Cipher: TLS_ECDHE_RSA_WITH_AES_256_GCM_SHA384][Plen Bins: 8,8,8,0,0,0,8,0,0,0,0,0,0,8,0,0,0,0,0,0,0,0,0,0,0,0,16,0,0,0,0,0,0,0,0,0,0,0,0,0,0,8,0,0,16,16,0,0]
	25	TCP 192.168.1.6:60542 <-> 52.113.194.132:443 [proto: 91.250/TLS.Teams][Encrypted][Confidence: DPI][cat: Collaborative/15][18 pkts/2750 bytes <-> 19 pkts/8360 bytes][Goodput ratio: 64/87][2.95 sec][Hostname/SNI: config.teams.microsoft.com][ALPN: h2;http/1.1][bytes ratio: -0.505 (Download)][IAT c2s/s2c min/avg/max/stddev: 0/0 197/61 1998/468 513/122][Pkt Len c2s/s2c min/avg/max/stddev: 54/60 153/440 575/1506 158/563][TLSv1.2][JA3C: ebf5e0e525258d7a8dcb54aa1564ecbd][ServerNames: *.config.teams.microsoft.com,config.teams.microsoft.com][JA3S: 0f14538e1c9070becdad7739c67d6363][Issuer: C=US, ST=Washington, L=Redmond, O=Microsoft Corporation, OU=Microsoft IT, CN=Microsoft IT TLS CA 1][Subject: CN=config.teams.microsoft.com][Certificate SHA-1: B9:54:54:12:C9:E9:43:65:10:70:04:7B:AD:B6:0C:46:06:38:A5:FA][Validity: 2019-12-11 02:04:20 - 2021-12-11 02:04:20][Cipher: TLS_ECDHE_RSA_WITH_AES_256_GCM_SHA384][Plen Bins: 0,11,11,0,11,0,11,0,0,11,5,0,5,5,0,0,5,0,0,0,0,0,0,0,0,0,0,0,0,0,0,0,0,0,0,0,0,0,0,0,0,0,0,0,0,22,0,0]
	26	TCP 192.168.1.6:60568 <-> 40.79.138.41:443 [proto: 91.276/TLS.Azure][Encrypted][Confidence: DPI][cat: Cloud/13][12 pkts/2175 bytes <-> 9 pkts/8211 bytes][Goodput ratio: 62/93][0.18 sec][Hostname/SNI: gate.hockeyapp.net][ALPN: h2;h2-16;h2-15;h2-14;spdy/3.1;spdy/3;http/1.1][bytes ratio: -0.581 (Download)][IAT c2s/s2c min/avg/max/stddev: 0/0 14/22 37/68 16/23][Pkt Len c2s/s2c min/avg/max/stddev: 66/66 181/912 599/1506 178/631][TLSv1.2][JA3C: a69708a64f853c3bcc214c2c5faf84f3][Safari][Plen Bins: 0,0,0,9,0,9,0,9,0,0,0,0,9,0,0,0,9,9,0,0,0,0,0,0,0,0,0,0,0,0,0,0,0,0,0,0,0,9,0,0,0,0,0,0,0,36,0,0]
	27	TCP 192.168.1.6:60564 <-> 40.79.138.41:443 [proto: 91.276/TLS.Azure][Encrypted][Confidence: DPI][cat: Cloud/13][12 pkts/2159 bytes <-> 9 pkts/8211 bytes][Goodput ratio: 62/93][0.17 sec][Hostname/SNI: gate.hockeyapp.net][ALPN: h2;h2-16;h2-15;h2-14;spdy/3.1;spdy/3;http/1.1][bytes ratio: -0.584 (Download)][IAT c2s/s2c min/avg/max/stddev: 0/0 12/20 33/42 14/18][Pkt Len c2s/s2c min/avg/max/stddev: 66/66 180/912 599/1506 176/631][TLSv1.2][JA3C: a69708a64f853c3bcc214c2c5faf84f3][Safari][Plen Bins: 0,0,0,9,0,9,0,9,0,0,0,0,9,0,0,0,9,9,0,0,0,0,0,0,0,0,0,0,0,0,0,0,0,0,0,0,0,9,0,0,0,0,0,0,0,36,0,0]
	28	TCP 192.168.1.6:60551 <-> 52.114.15.45:443 [proto: 91.250/TLS.Teams][Encrypted][Confidence: DPI][cat: Collaborative/15][13 pkts/2426 bytes <-> 11 pkts/7772 bytes][Goodput ratio: 70/92][0.88 sec][Hostname/SNI: trouter2-asse-a.trouter.teams.microsoft.com][bytes ratio: -0.524 (Download)][IAT c2s/s2c min/avg/max/stddev: 0/0 70/90 207/235 82/92][Pkt Len c2s/s2c min/avg/max/stddev: 54/60 187/707 1393/1506 353/636][Risk: ** TLS (probably) Not Carrying HTTPS **][Risk Score: 10][Risk Info: No ALPN][TLSv1.2][JA3C: e4d448cdfe06dc1243c1eb026c74ac9a][ServerNames: *.trouter.teams.microsoft.com,go.trouter.io,*.drip.trouter.io,*.dc.trouter.io][JA3S: 986571066668055ae9481cb84fda634a][Issuer: C=US, ST=Washington, L=Redmond, O=Microsoft Corporation, OU=Microsoft IT, CN=Microsoft IT TLS CA 2][Subject: CN=*.trouter.teams.microsoft.com][Certificate SHA-1: DD:24:DF:0E:F3:63:CC:10:B5:03:CF:34:EB:A5:14:8B:97:90:9B:D4][Firefox][Validity: 2019-11-29 17:57:58 - 2021-11-29 17:57:58][Cipher: TLS_ECDHE_RSA_WITH_AES_256_GCM_SHA384][Plen Bins: 0,24,0,7,7,0,7,0,0,0,0,0,7,0,0,0,0,0,0,0,0,0,7,0,0,0,0,0,0,0,0,0,0,0,0,0,0,0,0,0,0,7,0,0,0,31,0,0]
	29	TCP 192.168.1.6:60534 <-> 40.126.9.5:443 [proto: 91.219/TLS.Microsoft365][Encrypted][Confidence: DPI][cat: Collaborative/15][15 pkts/2846 bytes <-> 10 pkts/7289 bytes][Goodput ratio: 64/91][0.20 sec][Hostname/SNI: login.microsoftonline.com][ALPN: h2;h2-16;h2-15;h2-14;spdy/3.1;spdy/3;http/1.1][bytes ratio: -0.438 (Download)][IAT c2s/s2c min/avg/max/stddev: 0/0 15/21 41/53 16/22][Pkt Len c2s/s2c min/avg/max/stddev: 66/66 190/729 1471/1506 349/665][TLSv1.2][JA3C: a69708a64f853c3bcc214c2c5faf84f3][Safari][Plen Bins: 9,9,0,18,0,0,0,9,0,0,0,0,0,0,0,0,0,0,0,0,0,0,9,0,0,0,0,0,0,0,0,0,0,0,0,0,0,0,0,0,0,0,0,9,0,36,0,0]
	30	TCP 162.125.19.131:443 <-> 192.168.1.6:60344 [proto: 91.121/TLS.Dropbox][Encrypted][Confidence: DPI][cat: Cloud/13][8 pkts/761 bytes <-> 8 pkts/9347 bytes][Goodput ratio: 31/94][0.12 sec][bytes ratio: -0.849 (Download)][IAT c2s/s2c min/avg/max/stddev: 0/0 18/1 111/4 41/1][Pkt Len c2s/s2c min/avg/max/stddev: 66/66 95/1168 299/1494 77/500][Plen Bins: 0,0,0,0,0,0,0,12,0,0,0,0,0,0,0,0,0,0,12,0,0,0,0,0,0,0,0,0,0,0,0,0,0,12,0,0,0,0,0,0,0,0,0,0,63,0,0,0]
	31	TCP 192.168.1.6:60567 <-> 52.114.77.136:443 [proto: 91.250/TLS.Teams][Encrypted][Confidence: DPI][cat: Collaborative/15][13 pkts/2389 bytes <-> 11 pkts/7293 bytes][Goodput ratio: 69/91][1.77 sec][Hostname/SNI: api.flightproxy.teams.microsoft.com][bytes ratio: -0.507 (Download)][IAT c2s/s2c min/avg/max/stddev: 0/0 25/50 84/122 28/46][Pkt Len c2s/s2c min/avg/max/stddev: 54/60 184/663 703/1506 228/665][Risk: ** TLS (probably) Not Carrying HTTPS **][Risk Score: 10][Risk Info: No ALPN][TLSv1.2][JA3C: e4d448cdfe06dc1243c1eb026c74ac9a][Firefox][Plen Bins: 0,16,0,16,0,0,8,0,0,0,0,0,0,0,0,0,0,0,0,0,16,8,0,0,0,0,0,0,0,0,0,0,0,0,0,0,0,0,0,0,0,0,0,0,0,34,0,0]
	32	TCP 192.168.1.6:60557 <-> 52.113.194.132:443 [proto: 91.250/TLS.Teams][Encrypted][Confidence: DPI][cat: Collaborative/15][12 pkts/2422 bytes <-> 13 pkts/7118 bytes][Goodput ratio: 72/90][0.17 sec][Hostname/SNI: teams.microsoft.com][bytes ratio: -0.492 (Download)][IAT c2s/s2c min/avg/max/stddev: 0/0 17/14 91/79 27/23][Pkt Len c2s/s2c min/avg/max/stddev: 54/60 202/548 954/1506 267/645][Risk: ** TLS (probably) Not Carrying HTTPS **][Risk Score: 10][Risk Info: No ALPN][TLSv1.2][JA3C: e4d448cdfe06dc1243c1eb026c74ac9a][ServerNames: teams.microsoft.com][JA3S: 7d8fd34fdb13a7fff30d5a52846b6c4c][Issuer: C=US, ST=Washington, L=Redmond, O=Microsoft Corporation, OU=Microsoft IT, CN=Microsoft IT TLS CA 4][Subject: CN=teams.microsoft.com][Certificate SHA-1: 68:1E:E8:3C:83:70:6F:E3:86:F4:E8:8C:C4:E6:A0:9A:3E:E0:9C:0E][Firefox][Validity: 2019-09-12 18:16:45 - 2021-09-12 18:16:45][Cipher: TLS_ECDHE_RSA_WITH_AES_256_GCM_SHA384][Plen Bins: 0,16,0,8,0,8,8,0,0,8,0,0,0,0,0,0,8,0,0,0,0,0,0,0,0,0,0,0,8,0,0,0,0,0,0,0,0,0,0,0,0,0,0,0,0,34,0,0]
	33	UDP 93.71.110.205:16332 <-> 192.168.1.6:50016 [proto: 78.38/STUN.Skype_TeamsCall][ClearText][Confidence: DPI][cat: VoIP/10][30 pkts/5952 bytes <-> 7 pkts/3184 bytes][Goodput ratio: 79/91][2.72 sec][bytes ratio: 0.303 (Upload)][IAT c2s/s2c min/avg/max/stddev: 0/0 99/467 1167/1168 282/553][Pkt Len c2s/s2c min/avg/max/stddev: 80/80 198/455 1256/1256 284/507][Risk: ** Known Proto on Non Std Port **][Risk Score: 50][Risk Info: No client to server traffic][PLAIN TEXT (SMnzNK)][Plen Bins: 0,8,60,18,0,2,0,0,0,0,0,0,0,0,0,0,0,0,0,0,0,0,0,0,0,0,0,0,0,0,0,0,0,0,0,0,0,10,0,0,0,0,0,0,0,0,0,0]
	34	TCP 192.168.1.6:50036 <-> 52.114.250.153:443 [proto: 91.250/TLS.Teams][Encrypted][Confidence: DPI][cat: Collaborative/15][17 pkts/1759 bytes <-> 13 pkts/7267 bytes][Goodput ratio: 46/90][3.92 sec][Hostname/SNI: 52.114.250.153][bytes ratio: -0.610 (Download)][IAT c2s/s2c min/avg/max/stddev: 0/0 273/381 3619/3662 928/1094][Pkt Len c2s/s2c min/avg/max/stddev: 54/60 103/559 289/1506 79/554][Risk: ** TLS Cert Mismatch **** TLS (probably) Not Carrying HTTPS **][Risk Score: 110][Risk Info: No ALPN / 52.114.250.153 vs tr.teams.microsoft.com,*.tr.teams.microsoft.com,turn.teams.microsoft.com,*.turn.teams.microsoft.co][TLSv1.2][JA3C: e4d448cdfe06dc1243c1eb026c74ac9a][ServerNames: tr.teams.microsoft.com,*.tr.teams.microsoft.com,turn.teams.microsoft.com,*.turn.teams.microsoft.com,*.relay.teams.microsoft.com][JA3S: 986571066668055ae9481cb84fda634a][Issuer: C=US, ST=Washington, L=Redmond, O=Microsoft Corporation, OU=Microsoft IT, CN=Microsoft IT TLS CA 5][Subject: CN=tr.teams.microsoft.com][Certificate SHA-1: A7:90:8D:41:ED:24:D2:83:48:95:90:CE:18:D3:A6:C2:62:7A:07:75][Firefox][Validity: 2019-05-24 14:10:26 - 2021-05-24 14:10:26][Cipher: TLS_ECDHE_RSA_WITH_AES_256_GCM_SHA384][Plen Bins: 11,11,0,11,0,18,5,5,0,0,0,0,0,0,0,0,0,18,0,0,0,0,0,0,0,0,0,0,0,0,0,0,0,0,0,0,0,0,0,0,0,0,0,0,0,18,0,0]
	35	TCP 192.168.1.6:60538 <-> 52.114.75.70:443 [proto: 91.250/TLS.Teams][Encrypted][Confidence: DPI][cat: Collaborative/15][12 pkts/1791 bytes <-> 8 pkts/7215 bytes][Goodput ratio: 54/93][0.15 sec][Hostname/SNI: eu-prod.asyncgw.teams.microsoft.com][ALPN: h2;http/1.1][bytes ratio: -0.602 (Download)][IAT c2s/s2c min/avg/max/stddev: 0/0 14/16 37/65 15/24][Pkt Len c2s/s2c min/avg/max/stddev: 66/74 149/902 689/1506 176/629][TLSv1.2][JA3C: ebf5e0e525258d7a8dcb54aa1564ecbd][Plen Bins: 0,10,0,10,0,0,0,20,0,0,0,0,0,0,0,0,0,0,0,20,0,0,0,0,0,0,0,0,0,0,0,0,0,0,0,0,0,0,0,0,0,0,0,0,0,40,0,0]
	36	TCP 192.168.1.6:60539 <-> 52.114.75.69:443 [proto: 91.125/TLS.Skype_Teams][Encrypted][Confidence: DPI][cat: VoIP/10][12 pkts/1773 bytes <-> 8 pkts/7189 bytes][Goodput ratio: 53/93][0.15 sec][Hostname/SNI: eu-api.asm.skype.com][ALPN: h2;http/1.1][bytes ratio: -0.604 (Download)][IAT c2s/s2c min/avg/max/stddev: 0/0 15/20 32/58 15/22][Pkt Len c2s/s2c min/avg/max/stddev: 66/74 148/899 674/1506 171/632][TLSv1.2][JA3C: ebf5e0e525258d7a8dcb54aa1564ecbd][Plen Bins: 0,10,0,10,0,0,20,0,0,0,0,0,0,0,0,0,0,0,0,20,0,0,0,0,0,0,0,0,0,0,0,0,0,0,0,0,0,0,0,0,0,0,0,0,0,40,0,0]
	37	TCP 192.168.1.6:50018 <-> 52.114.250.123:443 [proto: 91.250/TLS.Teams][Encrypted][Confidence: DPI][cat: Collaborative/15][20 pkts/1629 bytes <-> 13 pkts/7093 bytes][Goodput ratio: 29/90][1.92 sec][Hostname/SNI: euaz.tr.teams.microsoft.com][bytes ratio: -0.626 (Download)][IAT c2s/s2c min/avg/max/stddev: 0/0 19/18 69/92 24/32][Pkt Len c2s/s2c min/avg/max/stddev: 54/60 81/546 241/1506 48/564][Risk: ** TLS (probably) Not Carrying HTTPS **][Risk Score: 10][Risk Info: No ALPN][TLSv1.2][JA3C: e4d448cdfe06dc1243c1eb026c74ac9a][Firefox][Plen Bins: 13,13,0,20,0,13,0,0,0,0,0,0,0,0,0,0,0,20,0,0,0,0,0,0,0,0,0,0,0,0,0,0,0,0,0,0,0,0,0,0,0,0,0,0,0,20,0,0]
	38	TCP 192.168.1.6:50021 <-> 52.114.250.123:443 [proto: 91.250/TLS.Teams][Encrypted][Confidence: DPI][cat: Collaborative/15][18 pkts/1509 bytes <-> 13 pkts/7093 bytes][Goodput ratio: 32/90][0.66 sec][Hostname/SNI: euaz.tr.teams.microsoft.com][bytes ratio: -0.649 (Download)][IAT c2s/s2c min/avg/max/stddev: 0/0 16/23 46/85 20/34][Pkt Len c2s/s2c min/avg/max/stddev: 54/60 84/546 241/1506 50/564][Risk: ** TLS (probably) Not Carrying HTTPS **][Risk Score: 10][Risk Info: No ALPN][TLSv1.2][JA3C: e4d448cdfe06dc1243c1eb026c74ac9a][Firefox][Plen Bins: 13,13,0,20,0,13,0,0,0,0,0,0,0,0,0,0,0,20,0,0,0,0,0,0,0,0,0,0,0,0,0,0,0,0,0,0,0,0,0,0,0,0,0,0,0,20,0,0]
	39	TCP 192.168.1.6:50014 <-> 52.114.250.152:443 [proto: 91.250/TLS.Teams][Encrypted][Confidence: DPI][cat: Collaborative/15][14 pkts/1347 bytes <-> 11 pkts/6975 bytes][Goodput ratio: 42/91][0.22 sec][Hostname/SNI: 52.114.250.152][bytes ratio: -0.676 (Download)][IAT c2s/s2c min/avg/max/stddev: 0/0 16/22 43/84 20/30][Pkt Len c2s/s2c min/avg/max/stddev: 54/60 96/634 289/1506 73/570][Risk: ** TLS Cert Mismatch **** TLS (probably) Not Carrying HTTPS **][Risk Score: 110][Risk Info: No ALPN / 52.114.250.152 vs tr.teams.microsoft.com,*.tr.teams.microsoft.com,turn.teams.microsoft.com,*.turn.teams.microsoft.co][TLSv1.2][JA3C: e4d448cdfe06dc1243c1eb026c74ac9a][ServerNames: tr.teams.microsoft.com,*.tr.teams.microsoft.com,turn.teams.microsoft.com,*.turn.teams.microsoft.com,*.relay.teams.microsoft.com][JA3S: 986571066668055ae9481cb84fda634a][Issuer: C=US, ST=Washington, L=Redmond, O=Microsoft Corporation, OU=Microsoft IT, CN=Microsoft IT TLS CA 5][Subject: CN=tr.teams.microsoft.com][Certificate SHA-1: A7:90:8D:41:ED:24:D2:83:48:95:90:CE:18:D3:A6:C2:62:7A:07:75][Firefox][Validity: 2019-05-24 14:10:26 - 2021-05-24 14:10:26][Cipher: TLS_ECDHE_RSA_WITH_AES_256_GCM_SHA384][Plen Bins: 7,14,0,14,0,14,0,7,0,0,0,0,0,0,0,0,0,21,0,0,0,0,0,0,0,0,0,0,0,0,0,0,0,0,0,0,0,0,0,0,0,0,0,0,0,21,0,0]
	40	TCP 192.168.1.6:60566 <-> 167.99.215.164:4434 [proto: 91.26/TLS.ntop][Encrypted][Confidence: DPI][cat: Network/14][9 pkts/3029 bytes <-> 8 pkts/2213 bytes][Goodput ratio: 80/76][2.73 sec][Hostname/SNI: dati.ntop.org][ALPN: h2;http/1.1][TLS Supported Versions: TLSv1.3;TLSv1.2;TLSv1.1;TLSv1][bytes ratio: 0.156 (Mixed)][IAT c2s/s2c min/avg/max/stddev: 0/1 351/431 1977/2053 668/728][Pkt Len c2s/s2c min/avg/max/stddev: 66/66 337/277 1012/1291 385/397][Risk: ** Known Proto on Non Std Port **][Risk Score: 50][TLSv1.2][JA3C: 7120d65624bcd2e02ed4b01388d84cdb][JA3S: 410b9bedaf65dd26c6fe547154d60db4][Firefox][Cipher: TLS_ECDHE_RSA_WITH_AES_256_GCM_SHA384][Plen Bins: 0,14,0,0,14,0,0,0,0,14,0,0,0,0,0,0,14,0,0,0,0,0,0,0,0,0,0,0,14,14,0,0,0,0,0,0,0,0,14,0,0,0,0,0,0,0,0,0]
	41	TCP 192.168.1.6:60546 <-> 167.99.215.164:4434 [proto: 91.26/TLS.ntop][Encrypted][Confidence: DPI][cat: Network/14][10 pkts/2195 bytes <-> 10 pkts/2077 bytes][Goodput ratio: 69/68][5.38 sec][Hostname/SNI: dati.ntop.org][ALPN: h2;http/1.1][TLS Supported Versions: TLSv1.3;TLSv1.2;TLSv1.1;TLSv1][bytes ratio: 0.028 (Mixed)][IAT c2s/s2c min/avg/max/stddev: 0/0 650/754 5000/5000 1645/1734][Pkt Len c2s/s2c min/avg/max/stddev: 66/66 220/208 1021/1292 308/364][Risk: ** Known Proto on Non Std Port **][Risk Score: 50][TLSv1.2][JA3C: 7120d65624bcd2e02ed4b01388d84cdb][JA3S: 410b9bedaf65dd26c6fe547154d60db4][Firefox][Cipher: TLS_ECDHE_RSA_WITH_AES_256_GCM_SHA384][Plen Bins: 16,16,0,0,16,0,0,0,0,0,0,0,0,0,0,0,16,0,0,0,0,0,0,0,0,0,0,0,0,16,0,0,0,0,0,0,0,0,16,0,0,0,0,0,0,0,0,0]
	42	UDP 192.168.1.6:50036 <-> 52.114.250.137:3478 [proto: 78.250/STUN.Teams][ClearText][Confidence: DPI][cat: VoIP/10][5 pkts/1390 bytes <-> 4 pkts/733 bytes][Goodput ratio: 85/77][4.06 sec][bytes ratio: 0.309 (Upload)][IAT c2s/s2c min/avg/max/stddev: 0/100 1003/774 2235/2092 994/932][Pkt Len c2s/s2c min/avg/max/stddev: 228/174 278/183 314/198 33/10][PLAIN TEXT (rtcmedia)][Plen Bins: 0,0,0,0,44,11,11,11,22,0,0,0,0,0,0,0,0,0,0,0,0,0,0,0,0,0,0,0,0,0,0,0,0,0,0,0,0,0,0,0,0,0,0,0,0,0,0,0]
	43	UDP 192.168.0.1:68 -> 255.255.255.255:67 [proto: 18/DHCP][ClearText][Confidence: DPI][cat: Network/14][6 pkts/1926 bytes -> 0 pkts/0 bytes][Goodput ratio: 87/0][25.01 sec][Hostname/SNI: tl-sg116e][bytes ratio: 1.000 (Upload)][IAT c2s/s2c min/avg/max/stddev: 4986/0 5001/0 5018/0 11/0][Pkt Len c2s/s2c min/avg/max/stddev: 321/0 321/0 321/0 0/0][DHCP Fingerprint: 1,3][DHCP Class Ident: TL-SG116E][Plen Bins: 0,0,0,0,0,0,0,0,100,0,0,0,0,0,0,0,0,0,0,0,0,0,0,0,0,0,0,0,0,0,0,0,0,0,0,0,0,0,0,0,0,0,0,0,0,0,0,0]
	44	UDP 192.168.1.6:50016 <-> 52.114.250.141:3478 [proto: 78.250/STUN.Teams][ClearText][Confidence: DPI][cat: VoIP/10][4 pkts/1162 bytes <-> 3 pkts/546 bytes][Goodput ratio: 85/77][1.99 sec][bytes ratio: 0.361 (Upload)][IAT c2s/s2c min/avg/max/stddev: 0/98 611/101 1783/104 829/3][Pkt Len c2s/s2c min/avg/max/stddev: 256/174 290/182 314/198 25/11][PLAIN TEXT (rtcmedia)][Plen Bins: 0,0,0,0,42,0,14,14,28,0,0,0,0,0,0,0,0,0,0,0,0,0,0,0,0,0,0,0,0,0,0,0,0,0,0,0,0,0,0,0,0,0,0,0,0,0,0,0]
	45	TCP 93.62.150.157:443 <-> 192.168.1.6:60512 [proto: 91/TLS][Encrypted][Confidence: DPI][cat: Web/5][2 pkts/1258 bytes <-> 2 pkts/108 bytes][Goodput ratio: 89/0][< 1 sec][Plen Bins: 0,50,0,0,0,0,0,0,0,0,0,0,0,0,0,0,0,0,0,0,0,0,0,0,0,0,0,0,0,0,0,0,0,0,50,0,0,0,0,0,0,0,0,0,0,0,0,0]
	46	UDP 192.168.1.6:50017 <-> 52.114.250.141:3478 [proto: 78.250/STUN.Teams][ClearText][Confidence: DPI][cat: VoIP/10][3 pkts/594 bytes <-> 3 pkts/611 bytes][Goodput ratio: 79/79][4.05 sec][bytes ratio: -0.014 (Mixed)][IAT c2s/s2c min/avg/max/stddev: 99/97 2002/2002 3906/3906 1904/1904][Pkt Len c2s/s2c min/avg/max/stddev: 110/187 198/204 256/229 63/18][PLAIN TEXT (The request did not contain a M)][Plen Bins: 0,0,16,0,33,33,16,0,0,0,0,0,0,0,0,0,0,0,0,0,0,0,0,0,0,0,0,0,0,0,0,0,0,0,0,0,0,0,0,0,0,0,0,0,0,0,0,0]
	47	UDP 192.168.1.6:50037 <-> 52.114.250.137:3478 [proto: 78.250/STUN.Teams][ClearText][Confidence: DPI][cat: VoIP/10][3 pkts/594 bytes <-> 3 pkts/611 bytes][Goodput ratio: 79/79][4.05 sec][bytes ratio: -0.014 (Mixed)][IAT c2s/s2c min/avg/max/stddev: 95/94 2000/2000 3905/3905 1905/1906][Pkt Len c2s/s2c min/avg/max/stddev: 110/187 198/204 256/229 63/18][PLAIN TEXT (The request did not contain a M)][Plen Bins: 0,0,16,0,33,33,16,0,0,0,0,0,0,0,0,0,0,0,0,0,0,0,0,0,0,0,0,0,0,0,0,0,0,0,0,0,0,0,0,0,0,0,0,0,0,0,0,0]
	48	UDP 93.71.110.205:16333 <-> 192.168.1.6:50036 [proto: 78.38/STUN.Skype_TeamsCall][ClearText][Confidence: DPI][cat: VoIP/10][3 pkts/414 bytes <-> 5 pkts/634 bytes][Goodput ratio: 69/67][2.31 sec][bytes ratio: -0.210 (Download)][IAT c2s/s2c min/avg/max/stddev: 101/15 634/572 1166/1168 532/565][Pkt Len c2s/s2c min/avg/max/stddev: 130/88 138/127 154/158 11/27][Risk: ** Known Proto on Non Std Port **][Risk Score: 50][Risk Info: No client to server traffic][Plen Bins: 0,25,37,37,0,0,0,0,0,0,0,0,0,0,0,0,0,0,0,0,0,0,0,0,0,0,0,0,0,0,0,0,0,0,0,0,0,0,0,0,0,0,0,0,0,0,0,0]
	49	UDP 192.168.1.6:50016 -> 192.168.0.4:50005 [proto: 78.250/STUN.Teams][ClearText][Confidence: DPI][cat: VoIP/10][5 pkts/770 bytes -> 0 pkts/0 bytes][Goodput ratio: 73/0][1.22 sec][Risk: ** Known Proto on Non Std Port **** Unidirectional Traffic **][Risk Score: 60][Risk Info: No server to client traffic][Plen Bins: 0,0,0,100,0,0,0,0,0,0,0,0,0,0,0,0,0,0,0,0,0,0,0,0,0,0,0,0,0,0,0,0,0,0,0,0,0,0,0,0,0,0,0,0,0,0,0,0]
	50	UDP 192.168.1.6:50036 -> 192.168.0.4:50020 [proto: 78.250/STUN.Teams][ClearText][Confidence: DPI][cat: VoIP/10][5 pkts/770 bytes -> 0 pkts/0 bytes][Goodput ratio: 73/0][1.22 sec][Risk: ** Known Proto on Non Std Port **** Unidirectional Traffic **][Risk Score: 60][Risk Info: No server to client traffic][Plen Bins: 0,0,0,100,0,0,0,0,0,0,0,0,0,0,0,0,0,0,0,0,0,0,0,0,0,0,0,0,0,0,0,0,0,0,0,0,0,0,0,0,0,0,0,0,0,0,0,0]
	51	UDP 192.168.1.6:50016 <-> 52.114.250.123:3478 [proto: 78.250/STUN.Teams][ClearText][Confidence: DPI][cat: VoIP/10][1 pkts/110 bytes <-> 2 pkts/424 bytes][Goodput ratio: 61/80][0.12 sec][PLAIN TEXT (The request did not contain a M)][Plen Bins: 0,0,33,0,33,33,0,0,0,0,0,0,0,0,0,0,0,0,0,0,0,0,0,0,0,0,0,0,0,0,0,0,0,0,0,0,0,0,0,0,0,0,0,0,0,0,0,0]
	52	UDP 192.168.1.6:50036 <-> 52.114.250.123:3478 [proto: 78.250/STUN.Teams][ClearText][Confidence: DPI][cat: VoIP/10][1 pkts/110 bytes <-> 2 pkts/424 bytes][Goodput ratio: 61/80][0.12 sec][PLAIN TEXT (The request did not contain a M)][Plen Bins: 0,0,33,0,33,33,0,0,0,0,0,0,0,0,0,0,0,0,0,0,0,0,0,0,0,0,0,0,0,0,0,0,0,0,0,0,0,0,0,0,0,0,0,0,0,0,0,0]
	53	UDP 192.168.1.6:17500 -> 192.168.1.255:17500 [proto: 121/Dropbox][ClearText][Confidence: DPI][cat: Cloud/13][1 pkts/527 bytes -> 0 pkts/0 bytes][Goodput ratio: 92/0][< 1 sec][PLAIN TEXT (version)][Plen Bins: 0,0,0,0,0,0,0,0,0,0,0,0,0,0,0,100,0,0,0,0,0,0,0,0,0,0,0,0,0,0,0,0,0,0,0,0,0,0,0,0,0,0,0,0,0,0,0,0]
	54	UDP 192.168.1.6:17500 -> 255.255.255.255:17500 [proto: 121/Dropbox][ClearText][Confidence: DPI][cat: Cloud/13][1 pkts/527 bytes -> 0 pkts/0 bytes][Goodput ratio: 92/0][< 1 sec][PLAIN TEXT (version)][Plen Bins: 0,0,0,0,0,0,0,0,0,0,0,0,0,0,0,100,0,0,0,0,0,0,0,0,0,0,0,0,0,0,0,0,0,0,0,0,0,0,0,0,0,0,0,0,0,0,0,0]
	55	UDP 0.0.0.0:68 -> 255.255.255.255:67 [proto: 18/DHCP][ClearText][Confidence: DPI][cat: Network/14][1 pkts/397 bytes -> 0 pkts/0 bytes][Goodput ratio: 89/0][< 1 sec][PLAIN TEXT (6.10.1)][Plen Bins: 0,0,0,0,0,0,0,0,0,0,0,100,0,0,0,0,0,0,0,0,0,0,0,0,0,0,0,0,0,0,0,0,0,0,0,0,0,0,0,0,0,0,0,0,0,0,0,0]
	56	UDP 192.168.1.6:63930 <-> 192.168.1.1:53 [proto: 5.212/DNS.Microsoft][ClearText][Confidence: DPI][cat: Cloud/13][1 pkts/96 bytes <-> 1 pkts/301 bytes][Goodput ratio: 56/86][0.04 sec][Hostname/SNI: dc.applicationinsights.microsoft.com][40.79.138.41][PLAIN TEXT (applicationinsights)][Plen Bins: 0,50,0,0,0,0,0,0,50,0,0,0,0,0,0,0,0,0,0,0,0,0,0,0,0,0,0,0,0,0,0,0,0,0,0,0,0,0,0,0,0,0,0,0,0,0,0,0]
	57	UDP 192.168.1.6:54069 <-> 192.168.1.1:53 [proto: 5/DNS][ClearText][Confidence: DPI][cat: Network/14][1 pkts/83 bytes <-> 1 pkts/264 bytes][Goodput ratio: 49/84][0.06 sec][Hostname/SNI: api.microsoftstream.com][104.40.187.151][PLAIN TEXT (microsoftstream)][Plen Bins: 0,50,0,0,0,0,50,0,0,0,0,0,0,0,0,0,0,0,0,0,0,0,0,0,0,0,0,0,0,0,0,0,0,0,0,0,0,0,0,0,0,0,0,0,0,0,0,0]
	58	UDP 192.168.1.6:62735 <-> 192.168.1.1:53 [proto: 5/DNS][ClearText][Confidence: DPI][cat: Network/14][1 pkts/90 bytes <-> 1 pkts/225 bytes][Goodput ratio: 53/81][0.01 sec][Hostname/SNI: euno-1.api.microsoftstream.com][52.169.186.119][PLAIN TEXT (microsoftstream)][Plen Bins: 0,50,0,0,0,50,0,0,0,0,0,0,0,0,0,0,0,0,0,0,0,0,0,0,0,0,0,0,0,0,0,0,0,0,0,0,0,0,0,0,0,0,0,0,0,0,0,0]
	59	UDP 192.168.1.6:57504 <-> 192.168.1.1:53 [proto: 5.250/DNS.Teams][ClearText][Confidence: DPI][cat: Collaborative/15][1 pkts/92 bytes <-> 1 pkts/222 bytes][Goodput ratio: 54/81][0.04 sec][Hostname/SNI: chatsvcagg.svcs.teams.office.com][52.114.88.59][PLAIN TEXT (chatsvcagg)][Plen Bins: 0,50,0,0,0,50,0,0,0,0,0,0,0,0,0,0,0,0,0,0,0,0,0,0,0,0,0,0,0,0,0,0,0,0,0,0,0,0,0,0,0,0,0,0,0,0,0,0]
	60	UDP 192.168.1.6:58457 <-> 192.168.1.1:53 [proto: 5.219/DNS.Microsoft365][ClearText][Confidence: DPI][cat: Collaborative/15][1 pkts/78 bytes <-> 1 pkts/236 bytes][Goodput ratio: 46/82][0.01 sec][Hostname/SNI: outlook.office.com][13.107.18.11][PLAIN TEXT (outlook)][Plen Bins: 0,50,0,0,0,0,50,0,0,0,0,0,0,0,0,0,0,0,0,0,0,0,0,0,0,0,0,0,0,0,0,0,0,0,0,0,0,0,0,0,0,0,0,0,0,0,0,0]
	61	UDP 192.168.1.6:50653 <-> 192.168.1.1:53 [proto: 5.250/DNS.Teams][ClearText][Confidence: DPI][cat: Collaborative/15][1 pkts/95 bytes <-> 1 pkts/216 bytes][Goodput ratio: 55/80][0.03 sec][Hostname/SNI: api.flightproxy.teams.microsoft.com][52.114.77.136][PLAIN TEXT (flightproxy)][Plen Bins: 0,50,0,0,0,50,0,0,0,0,0,0,0,0,0,0,0,0,0,0,0,0,0,0,0,0,0,0,0,0,0,0,0,0,0,0,0,0,0,0,0,0,0,0,0,0,0,0]
	62	UDP 52.114.252.8:3479 <-> 192.168.1.6:50016 [proto: 78.38/STUN.Skype_TeamsCall][ClearText][Confidence: DPI][cat: VoIP/10][1 pkts/166 bytes <-> 1 pkts/142 bytes][Goodput ratio: 74/70][0.01 sec][Risk: ** Known Proto on Non Std Port **][Risk Score: 50][Risk Info: No client to server traffic][Plen Bins: 0,0,0,100,0,0,0,0,0,0,0,0,0,0,0,0,0,0,0,0,0,0,0,0,0,0,0,0,0,0,0,0,0,0,0,0,0,0,0,0,0,0,0,0,0,0,0,0]
	63	UDP 52.114.252.21:3480 <-> 192.168.1.6:50036 [proto: 78.38/STUN.Skype_TeamsCall][ClearText][Confidence: DPI][cat: VoIP/10][1 pkts/166 bytes <-> 1 pkts/142 bytes][Goodput ratio: 74/70][0.01 sec][Risk: ** Known Proto on Non Std Port **][Risk Score: 50][Risk Info: No client to server traffic][Plen Bins: 0,0,0,100,0,0,0,0,0,0,0,0,0,0,0,0,0,0,0,0,0,0,0,0,0,0,0,0,0,0,0,0,0,0,0,0,0,0,0,0,0,0,0,0,0,0,0,0]
	64	UDP 192.168.1.6:64046 <-> 192.168.1.1:53 [proto: 5.26/DNS.ntop][ClearText][Confidence: DPI][cat: Network/14][2 pkts/166 bytes <-> 1 pkts/136 bytes][Goodput ratio: 49/69][1.01 sec][Hostname/SNI: b._dns-sd._udp.ntop.org][::][Risk: ** Error Code **][Risk Score: 10][Risk Info: DNS Error Code 3][PLAIN TEXT (postmaster)][Plen Bins: 0,66,33,0,0,0,0,0,0,0,0,0,0,0,0,0,0,0,0,0,0,0,0,0,0,0,0,0,0,0,0,0,0,0,0,0,0,0,0,0,0,0,0,0,0,0,0,0]
	65	UDP 192.168.1.6:63106 <-> 192.168.1.1:53 [proto: 5.250/DNS.Teams][ClearText][Confidence: DPI][cat: Collaborative/15][1 pkts/95 bytes <-> 1 pkts/203 bytes][Goodput ratio: 55/79][0.03 sec][Hostname/SNI: eu-prod.asyncgw.teams.microsoft.com][52.114.75.70][PLAIN TEXT (microsoft)][Plen Bins: 0,50,0,0,0,50,0,0,0,0,0,0,0,0,0,0,0,0,0,0,0,0,0,0,0,0,0,0,0,0,0,0,0,0,0,0,0,0,0,0,0,0,0,0,0,0,0,0]
	66	UDP 192.168.1.6:61245 <-> 192.168.1.1:53 [proto: 5.250/DNS.Teams][ClearText][Confidence: DPI][cat: Collaborative/15][1 pkts/87 bytes <-> 1 pkts/209 bytes][Goodput ratio: 51/80][0.05 sec][Hostname/SNI: euaz.tr.teams.microsoft.com][52.114.250.123][Risk: ** Suspicious DNS Traffic **][Risk Score: 100][Risk Info: DNS Record with zero TTL][PLAIN TEXT (microsoft)][Plen Bins: 0,50,0,0,0,50,0,0,0,0,0,0,0,0,0,0,0,0,0,0,0,0,0,0,0,0,0,0,0,0,0,0,0,0,0,0,0,0,0,0,0,0,0,0,0,0,0,0]
	67	UDP 192.168.1.6:55765 <-> 192.168.1.1:53 [proto: 5.276/DNS.Azure][ClearText][Confidence: DPI][cat: Cloud/13][1 pkts/109 bytes <-> 1 pkts/185 bytes][Goodput ratio: 61/77][0.01 sec][Hostname/SNI: b-tr-teams-euno-05.northeurope.cloudapp.azure.com][::][PLAIN TEXT (northeurope)][Plen Bins: 0,0,50,0,50,0,0,0,0,0,0,0,0,0,0,0,0,0,0,0,0,0,0,0,0,0,0,0,0,0,0,0,0,0,0,0,0,0,0,0,0,0,0,0,0,0,0,0]
	68	UDP 192.168.1.6:59403 <-> 192.168.1.1:53 [proto: 5.219/DNS.Microsoft365][ClearText][Confidence: DPI][cat: Collaborative/15][1 pkts/80 bytes <-> 1 pkts/214 bytes][Goodput ratio: 47/80][0.01 sec][Hostname/SNI: substrate.office.com][13.107.18.11][PLAIN TEXT (substrate)][Plen Bins: 0,50,0,0,0,50,0,0,0,0,0,0,0,0,0,0,0,0,0,0,0,0,0,0,0,0,0,0,0,0,0,0,0,0,0,0,0,0,0,0,0,0,0,0,0,0,0,0]
	69	UDP 192.168.1.6:49514 <-> 192.168.1.1:53 [proto: 5.250/DNS.Teams][ClearText][Confidence: DPI][cat: Collaborative/15][1 pkts/86 bytes <-> 1 pkts/204 bytes][Goodput ratio: 51/79][0.01 sec][Hostname/SNI: config.teams.microsoft.com][52.113.194.132][PLAIN TEXT (config)][Plen Bins: 0,50,0,0,0,50,0,0,0,0,0,0,0,0,0,0,0,0,0,0,0,0,0,0,0,0,0,0,0,0,0,0,0,0,0,0,0,0,0,0,0,0,0,0,0,0,0,0]
	70	UDP 192.168.1.6:57530 <-> 192.168.1.1:53 [proto: 5.212/DNS.Microsoft][ClearText][Confidence: DPI][cat: Web/5][1 pkts/100 bytes <-> 1 pkts/181 bytes][Goodput ratio: 57/76][0.03 sec][Hostname/SNI: presence.services.sfb.trafficmanager.net][52.114.77.58][PLAIN TEXT (presence)][Plen Bins: 0,50,0,0,50,0,0,0,0,0,0,0,0,0,0,0,0,0,0,0,0,0,0,0,0,0,0,0,0,0,0,0,0,0,0,0,0,0,0,0,0,0,0,0,0,0,0,0]
	71	UDP 192.168.1.6:53678 <-> 192.168.1.1:53 [proto: 5.250/DNS.Teams][ClearText][Confidence: DPI][cat: Collaborative/15][1 pkts/103 bytes <-> 1 pkts/173 bytes][Goodput ratio: 59/75][0.01 sec][Hostname/SNI: trouter2-asse-a.trouter.teams.microsoft.com][2a01:111:f100:7000::6fdd:54a1][PLAIN TEXT (trouter)][Plen Bins: 0,50,0,0,50,0,0,0,0,0,0,0,0,0,0,0,0,0,0,0,0,0,0,0,0,0,0,0,0,0,0,0,0,0,0,0,0,0,0,0,0,0,0,0,0,0,0,0]
	72	UDP 192.168.1.6:60837 <-> 192.168.1.1:53 [proto: 5.250/DNS.Teams][ClearText][Confidence: DPI][cat: Collaborative/15][1 pkts/100 bytes <-> 1 pkts/176 bytes][Goodput ratio: 57/76][0.01 sec][Hostname/SNI: c-flightproxy-euno-01-teams.cloudapp.net][::][PLAIN TEXT (flightproxy)][Plen Bins: 0,50,0,0,50,0,0,0,0,0,0,0,0,0,0,0,0,0,0,0,0,0,0,0,0,0,0,0,0,0,0,0,0,0,0,0,0,0,0,0,0,0,0,0,0,0,0,0]
	73	UDP 192.168.1.6:65230 <-> 192.168.1.1:53 [proto: 5.250/DNS.Teams][ClearText][Confidence: DPI][cat: Collaborative/15][1 pkts/103 bytes <-> 1 pkts/161 bytes][Goodput ratio: 59/73][0.01 sec][Hostname/SNI: trouter2-asse-a.trouter.teams.microsoft.com][52.114.15.45][PLAIN TEXT (trouter)][Plen Bins: 0,50,0,50,0,0,0,0,0,0,0,0,0,0,0,0,0,0,0,0,0,0,0,0,0,0,0,0,0,0,0,0,0,0,0,0,0,0,0,0,0,0,0,0,0,0,0,0]
	74	UDP 192.168.1.6:65387 <-> 192.168.1.1:53 [proto: 5.212/DNS.Microsoft][ClearText][Confidence: DPI][cat: Web/5][1 pkts/93 bytes <-> 1 pkts/171 bytes][Goodput ratio: 54/75][0.01 sec][Hostname/SNI: northeuropecns.trafficmanager.net][52.114.76.48][PLAIN TEXT (northeuropecns)][Plen Bins: 0,50,0,0,50,0,0,0,0,0,0,0,0,0,0,0,0,0,0,0,0,0,0,0,0,0,0,0,0,0,0,0,0,0,0,0,0,0,0,0,0,0,0,0,0,0,0,0]
	75	UDP 192.168.1.6:51033 <-> 192.168.1.1:53 [proto: 5.125/DNS.Skype_Teams][ClearText][Confidence: DPI][cat: VoIP/10][1 pkts/80 bytes <-> 1 pkts/182 bytes][Goodput ratio: 47/77][0.04 sec][Hostname/SNI: eu-api.asm.skype.com][52.114.75.69][PLAIN TEXT (trafficmanager)][Plen Bins: 0,50,0,0,50,0,0,0,0,0,0,0,0,0,0,0,0,0,0,0,0,0,0,0,0,0,0,0,0,0,0,0,0,0,0,0,0,0,0,0,0,0,0,0,0,0,0,0]
	76	UDP 192.168.1.6:51309 <-> 192.168.1.1:53 [proto: 5/DNS][ClearText][Confidence: DPI][cat: Network/14][1 pkts/93 bytes <-> 1 pkts/169 bytes][Goodput ratio: 54/75][0.01 sec][Hostname/SNI: skypedataprdcolneu04.cloudapp.net][::][PLAIN TEXT (skypedataprdcolneu04)][Plen Bins: 0,50,0,50,0,0,0,0,0,0,0,0,0,0,0,0,0,0,0,0,0,0,0,0,0,0,0,0,0,0,0,0,0,0,0,0,0,0,0,0,0,0,0,0,0,0,0,0]
	77	UDP 192.168.1.6:62863 <-> 192.168.1.1:53 [proto: 5.250/DNS.Teams][ClearText][Confidence: DPI][cat: Collaborative/15][1 pkts/103 bytes <-> 1 pkts/158 bytes][Goodput ratio: 59/73][0.07 sec][Hostname/SNI: emea.ng.msg.teams-msgapi.trafficmanager.net][52.114.108.8][PLAIN TEXT (msgapi)][Plen Bins: 0,50,0,50,0,0,0,0,0,0,0,0,0,0,0,0,0,0,0,0,0,0,0,0,0,0,0,0,0,0,0,0,0,0,0,0,0,0,0,0,0,0,0,0,0,0,0,0]
	78	UDP 192.168.1.6:56634 <-> 192.168.1.1:53 [proto: 5/DNS][ClearText][Confidence: DPI][cat: ConnCheck/30][1 pkts/89 bytes <-> 1 pkts/142 bytes][Goodput ratio: 52/70][0.03 sec][Hostname/SNI: captive.apple.com.edgekey.net][23.50.158.88][PLAIN TEXT (captive)][Plen Bins: 0,50,0,50,0,0,0,0,0,0,0,0,0,0,0,0,0,0,0,0,0,0,0,0,0,0,0,0,0,0,0,0,0,0,0,0,0,0,0,0,0,0,0,0,0,0,0,0]
	79	UDP 192.168.1.6:60813 <-> 192.168.1.1:53 [proto: 5/DNS][ClearText][Confidence: DPI][cat: Network/14][1 pkts/93 bytes <-> 1 pkts/109 bytes][Goodput ratio: 54/61][0.01 sec][Hostname/SNI: skypedataprdcolneu04.cloudapp.net][52.114.77.33][PLAIN TEXT (skypedataprdcolneu04)][Plen Bins: 0,50,50,0,0,0,0,0,0,0,0,0,0,0,0,0,0,0,0,0,0,0,0,0,0,0,0,0,0,0,0,0,0,0,0,0,0,0,0,0,0,0,0,0,0,0,0,0]
	80	TCP 192.168.1.6:58533 -> 149.154.167.91:443 [proto: 91.185/TLS.Telegram][Encrypted][Confidence: Match by IP][cat: Chat/9][3 pkts/186 bytes -> 0 pkts/0 bytes][Goodput ratio: 0/0][4.29 sec][Risk: ** Unidirectional Traffic **][Risk Score: 10][Risk Info: No server to client traffic][Plen Bins: 0,0,0,0,0,0,0,0,0,0,0,0,0,0,0,0,0,0,0,0,0,0,0,0,0,0,0,0,0,0,0,0,0,0,0,0,0,0,0,0,0,0,0,0,0,0,0,0]
	81	ICMP 93.71.110.205:0 -> 192.168.1.6:0 [proto: 81/ICMP][ClearText][Confidence: DPI][cat: Network/14][2 pkts/140 bytes -> 0 pkts/0 bytes][Goodput ratio: 40/0][0.01 sec][Risk: ** Unidirectional Traffic **][Risk Score: 10][Risk Info: No client to server traffic][Plen Bins: 100,0,0,0,0,0,0,0,0,0,0,0,0,0,0,0,0,0,0,0,0,0,0,0,0,0,0,0,0,0,0,0,0,0,0,0,0,0,0,0,0,0,0,0,0,0,0,0]
	82	UDP 192.168.1.112:57621 -> 192.168.1.255:57621 [proto: 156/Spotify][Encrypted][Confidence: DPI][cat: Music/25][1 pkts/82 bytes -> 0 pkts/0 bytes][Goodput ratio: 48/0][< 1 sec][PLAIN TEXT (SpotUdp)][Plen Bins: 0,100,0,0,0,0,0,0,0,0,0,0,0,0,0,0,0,0,0,0,0,0,0,0,0,0,0,0,0,0,0,0,0,0,0,0,0,0,0,0,0,0,0,0,0,0,0,0]


Undetected flows:
	1	TCP 151.11.50.139:2222 <-> 192.168.1.6:54750 [proto: 0/Unknown][ClearText][Confidence: Unknown][2 pkts/252 bytes <-> 2 pkts/204 bytes][Goodput ratio: 47/35][0.05 sec][Plen Bins: 0,0,50,50,0,0,0,0,0,0,0,0,0,0,0,0,0,0,0,0,0,0,0,0,0,0,0,0,0,0,0,0,0,0,0,0,0,0,0,0,0,0,0,0,0,0,0,0]
